{
	"1137": 1,
	"1991": 1,
	"Noisia": 109,
	"Machinedrum & Holly": 3,
	"The Caracal Project": 11,
	"Annix": 8,
	"Skylark": 11,
	"Misanthrop": 24,
	"QZB": 15,
	"Urbandawn": 12,
	"Malux": 21,
	"Alex SLK": 1,
	"Great Dane or Noer The Boy (Or Both Or Remix)": 1,
	"Zero T & Beta 2": 1,
	"Mad Zach": 5,
	"Current Value": 63,
	"Nami": 10,
	"Gnome Beats": 1,
	"Nesium": 2,
	"Mofes": 5,
	"Wickaman & RV": 1,
	"Sentic Cycle": 3,
	"Optiv & Bulletproof": 3,
	"Deantoni Parks": 1,
	"Thys": 18,
	"Tek Genesis": 10,
	"Anti.Negative": 1,
	"Teddy Killerz": 11,
	"DLR": 15,
	"Kusp": 1,
	"Aardvarck": 1,
	"Toyfon": 2,
	"Sinic": 6,
	"Tide": 1,
	"Tsuruda": 54,
	"Creatures": 4,
	"L3mmy Dubz": 2,
	"QZB & Emperor": 2,
	"Monuman": 23,
	"Philip D Kick": 1,
	"Lorn": 11,
	"Halflow": 2,
	"Cause4Concern": 2,
	"Lordel": 5,
	"Proxima": 19,
	"Joe Ford": 6,
	"Melle": 2,
	"Hadley & Waeys": 1,
	"Shield": 14,
	"Break Ft. Kyo": 1,
	"Four Tet": 2,
	"Levela": 10,
	"Former": 21,
	"Skylark & Dot.": 1,
	"Tek Genesis & Halinae": 2,
	"Black Barrel": 12,
	"Annix & Skantia": 1,
	"Untrue": 2,
	"Art1fact": 1,
	"DEZ": 1,
	"Deft": 7,
	"Giganti": 1,
	"Freshney": 1,
	"Sebalo": 1,
	"Henry": 1,
	"Onumi": 1,
	"Third Colony": 1,
	"Noisia & The Upbeats": 15,
	"IMANU": 13,
	"Posij & Former": 3,
	"Rockwell X The Upbeats": 2,
	"Posij": 51,
	"Ivy Lab X Two Fingers": 1,
	"Buunshin": 10,
	"Insideinfo Ft. Rhymestar": 1,
	"Phace X Misanthrop": 2,
	"Phace & Noisia": 6,
	"Alix Perez & Ivy Lab": 7,
	"Mefjus & Skeptical": 3,
	"OaT": 11,
	"Phace X Noisia": 3,
	"Phace x Noisia": 3,
	"Reso": 4,
	"Mark Knight Ft. Skin": 3,
	"Dub Head & Black Barrel": 3,
	"Ivy Lab": 44,
	"Mefjus & Phace": 3,
	"IMANU & Buunshin": 1,
	"Tek Genesis & Quiet Bison": 3,
	"Kemal + Rob Data": 1,
	"Enei": 16,
	"Ordure": 5,
	"Danger": 2,
	"Phace": 18,
	"Replicant & Richter": 1,
	"Peekaboo": 1,
	"Noisia  & The Upbeats": 1,
	"Hyroglifics": 8,
	"Toxinate": 1,
	"Moody Good": 10,
	"Elusive": 1,
	"Fre4knc & The Futurist": 1,
	"Point Clare": 2,
	"Eprom & G Jones": 1,
	"Anti": 2,
	"G Jones": 8,
	"Space Laces": 4,
	"Brockhampton": 1,
	"Holly": 5,
	"Tek Genesis & Keenan Mathias": 1,
	"IMANU & Audio": 2,
	"Fre4knc": 10,
	"Prestige": 7,
	"Result": 3,
	"SD": 6,
	"Kasra": 10,
	"EastColors & Noel": 2,
	"Malux & Rido": 1,
	"High Contrast": 1,
	"Subp Yao": 1,
	"Broken Note": 1,
	"Emperor": 22,
	"Vowel": 4,
	"G": 2,
	"Molecular": 4,
	"Treega": 2,
	"Solace, Jabaru & Buxx": 1,
	"Two Fingers": 13,
	"Dj Hazard": 4,
	"Abstr4ct": 1,
	"Nick The Lot": 1,
	"LWK": 4,
	"Voyage": 3,
	"IMANU & HEZEN": 2,
	"Nosfer & Urph": 1,
	"Dabow": 1,
	"Oakwhite": 1,
	"Skeptical & SPMC": 1,
	"Skrude": 1,
	"Telekinesis": 3,
	"Creatures & Jestah": 1,
	"Lao Wai": 3,
	"MVRK & Dub Personal": 1,
	"Hybris": 48,
	"Lavance": 4,
	"Former & Posij": 1,
	"Kasra & Enei": 4,
	"Dj Ride": 1,
	"Current Value & T.I": 1,
	"MVRK & Pein": 1,
	"Halogenix": 18,
	"Zombie Cats & Redpill": 1,
	"Bleep Bloop": 6,
	"Klinical + Objectiv": 1,
	"Vulgatron": 1,
	"Razlom": 2,
	"Flite": 1,
	"Sterfry": 3,
	"Donny": 4,
	"Turno": 3,
	"Sound Priest": 2,
	"Burr Oak & Nickbee": 1,
	"Wilkinson": 3,
	"Sabre & Safire": 2,
	"Eprom": 9,
	"TNGHT": 1,
	"Workforce": 3,
	"Bonobo": 1,
	"Deadmau5": 1,
	"Moderat": 2,
	"Nathan Fake": 3,
	"Fade Black": 4,
	"Exept & VC": 1,
	"Habstrakt": 1,
	"Insideinfo & Mefjus": 1,
	"Chrizpy Chriz": 3,
	"Maztek": 5,
	"Leaf": 6,
	"CVPTVGON": 1,
	"Grim Hellhound": 1,
	"Screamarts": 7,
	"Eliminate": 1,
	"Høst": 10,
	"Bl4ck Owlz": 4,
	"Simula": 8,
	"Dub Motion": 1,
	"Alix Perez": 18,
	"Ivy Lab x Two Fingers": 4,
	"SubMarine": 5,
	"Jon Casey": 6,
	"Oz": 2,
	"Talkre": 10,
	"Otira": 1,
	"Redpill": 16,
	"Taxman": 2,
	"Warhead": 1,
	"Disprove": 22,
	"Adiidas": 2,
	"Survey": 15,
	"Balatron": 9,
	"Circuits": 11,
	"Volatile Cycle & Dot.": 1,
	"Passcde": 2,
	"MD": 2,
	"Imanu": 2,
	"Jake Robertz": 1,
	"Mefjus & Camo & Krooked": 1,
	"Skantia": 2,
	"Abstract Elements": 13,
	"Mono/Poly": 4,
	"Ground": 6,
	"Ghostek": 5,
	"Ampzer": 2,
	"Kolosforo": 1,
	"Stompz": 1,
	"Whiney": 3,
	"Nick The Lot & Warhead": 1,
	"Nami & Rizzle": 3,
	"Kodin & Tide": 1,
	"Signal": 26,
	"MNDSCP": 1,
	"Sam Binga x ONHELL": 1,
	"Wingz": 7,
	"Tracksuit Goth": 1,
	"Bluescreen & See Jay": 1,
	"MUHLA": 1,
	"HEZEN": 1,
	"Hyroglifics & Fluidity": 1,
	"Yunis x Rohaan": 1,
	"Bredren": 7,
	"MVRK": 6,
	"Arclight": 5,
	"Fracture x Sam Binga": 1,
	"Ewol & Skylark": 1,
	"Tekel": 3,
	"NC": 3,
	"Nvctve": 1,
	"Tom Finster": 2,
	"FRQ NCY": 3,
	"Pessimist": 1,
	"Teebs": 1,
	"Missin": 2,
	"Audio": 14,
	"Urph": 1,
	"Madster": 1,
	"Amoss": 11,
	"Fryar & Houman": 1,
	"BassBrothers": 4,
	"Droptek": 4,
	"Rez": 1,
	"Des McMahon": 3,
	"Billain": 4,
	"The Clamps": 4,
	"MRSA": 6,
	"Murdock": 2,
	"Hapa": 4,
	"Freeze": 1,
	"Ewol": 10,
	"Sensus": 4,
	"Dj Limited": 4,
	"Hidden Tactics": 1,
	"Myth": 1,
	"Kung": 4,
	"NU4M": 5,
	"Dead End": 1,
	"Ion Driver": 7,
	"ABIS & Signal Ft. Tasha Baxter": 1,
	"Ternion Sound": 4,
	"The Outsiders Ft. Pyvot": 1,
	"A": 3,
	"Myth x NC17": 1,
	"Rome In Silver": 1,
	"Gino": 1,
	"Seppa": 3,
	"ChaseR": 10,
	"Signal & Synergy": 3,
	"Zombie Cats": 1,
	"TC & Crissy Criss Ft. Jakes": 1,
	"Logics": 1,
	"Davip": 3,
	"Heist & TI": 1,
	"Hapa & Dayle": 1,
	"Edit": 1,
	"Sub Zero Ft. Dread MC": 1,
	"3RDKND Ft. Donny, Forbidden Society and Katharsys": 1,
	"Lockjaw": 10,
	"DLR & Hybris": 1,
	"NickBee": 5,
	"Holly Herndon": 1,
	"Fre4knc & Klinical": 1,
	"Master Error": 3,
	"Operate": 1,
	"Dictate": 3,
	"Lao Wai Ft. LaMeduza": 1,
	"ABIS & Zombie Cats": 1,
	"Doctrine": 10,
	"Mesck": 5,
	"Revaux": 3,
	"Xtrah": 15,
	"Disphonia": 5,
	"M": 7,
	"Primal Tribes": 1,
	"Euph": 4,
	"Survey & QZB": 1,
	"Xyphon": 1,
	"Division X Mofes": 1,
	"The Upbeats Ft. Culture Shock": 1,
	"Howitzer": 2,
	"Slaycub": 1,
	"LeStR": 2,
	"Dexta": 1,
	"Mean Teeth": 10,
	"Topi": 2,
	"Richfellow": 1,
	"Fatloaf": 1,
	"Konflict": 3,
	"Bop": 9,
	"The Outsiders": 7,
	"DMT": 3,
	"ChaseR & Subminderz": 1,
	"Kursa X Lone Drum": 1,
	"Icicle": 8,
	"Donkong": 2,
	"Survey & Amoss": 1,
	"Sustance": 12,
	"Limited": 7,
	"Huxley Anne": 2,
	"Nickbee & Malk": 2,
	"Total Science & War": 1,
	"HFO": 1,
	"Objectiv": 4,
	"NastyNasty & Sayer": 1,
	"Fake": 2,
	"Enta": 4,
	"Ulterior Motive": 7,
	"Stomp": 1,
	"Rido": 5,
	"Dr. Ozi": 1,
	"Freeman and Fake": 1,
	"Fracture": 3,
	"Noisia & Alix Perez": 4,
	"Insideinfo": 1,
	"Binks": 1,
	"Everything Changes": 1,
	"Modestep": 1,
	"Iglooghost": 2,
	"Unglued & Phace": 1,
	"Enei & Jakes": 1,
	"Alix Perez x Rockwell": 1,
	"Dub Elements & IHR": 1,
	"Nickbee": 15,
	"Kyrist & Monroe": 1,
	"Abelation": 1,
	"16Bit": 2,
	"Annix Ft. Ej Kitto": 1,
	"Akeos & Jub": 1,
	"Enta & Master Error": 1,
	"Little Snake": 1,
	"Division": 1,
	"Rhytual": 1,
	"dBridge": 5,
	"Mono Poly": 1,
	"Document One": 4,
	"Starkey": 1,
	"Ekko & Sidetrack": 2,
	"Mystic State": 2,
	"What So Not": 4,
	"Tessa Thompson": 1,
	"Rockwell x Phace": 1,
	"Monty": 18,
	"Pythius Ft. June Miller": 2,
	"Forbidden Society": 9,
	"Sam Harris & Audiomission": 1,
	"Clyde": 1,
	"Noer The Boy": 20,
	"Tephra & Arkoze and Nick Modern": 1,
	"Calculon & Pawn": 1,
	"Skope": 5,
	"Phace x Misanthrop": 2,
	"Dot.": 1,
	"Jason Wool": 1,
	"Buli": 1,
	"Kuantum": 1,
	"Teebee": 4,
	"QZB & IHR": 1,
	"Kumarachi": 7,
	"Neosignal": 4,
	"Virul": 1,
	"3WA": 1,
	"Pythius": 7,
	"Millbrook x Disprove x Ordure": 1,
	"Muadeep": 2,
	"Rockwell x The Upbeats": 1,
	"Simple Technique": 2,
	"Burr Oak": 1,
	"Amon Tobin": 4,
	"Sound In Noise": 2,
	"Camo & Krooked": 10,
	"Caspa": 2,
	"Millbrook": 1,
	"Binks x Gnosis": 1,
	"Dog Blood": 1,
	"Kings Of The Rollers": 2,
	"Bassment": 2,
	"Dranq": 1,
	"Sublimit": 1,
	"KY": 2,
	"Noisia & Phace": 13,
	"Outselect": 1,
	"Surachai": 2,
	"Nausika": 3,
	"I Am Legion": 10,
	"Samurai Breaks": 4,
	"Septal": 2,
	"Zohar": 1,
	"Volatile Cycle & ABIS": 1,
	"Noised": 1,
	"Thook": 6,
	"Mad Zach x Yunis": 1,
	"Waeys": 1,
	"Eazy Baked": 1,
	"Volatile Cycle & Kyrist": 1,
	"Jayline": 1,
	"Mr Carmack": 3,
	"Prolix & Black Sun Empire": 2,
	"Fascad": 1,
	"Paige Julia": 2,
	"HumaNature": 2,
	"Mefjus": 62,
	"Christoph De Babalon": 1,
	"Vowel & Mason": 1,
	"BINKS x Gnosis": 1,
	"The Outsiders & MVRK": 1,
	"Gladez": 1,
	"Volatile Cycle & Cruk": 1,
	"Visages": 7,
	"Insideinfo ft. Rhymestar": 2,
	"Annix & Kanine": 1,
	"JuLo": 4,
	"Double Helix": 1,
	"Neonlight": 12,
	"Dj Hidden": 2,
	"Mistrust": 1,
	"Oakwite": 1,
	"Exept & MVRK": 1,
	"Wreckless": 2,
	"Receptor Vs Gydra": 1,
	"Ruse": 1,
	"Tomoyoshi": 1,
	"Volatile Cycle & Primitive Instinct": 1,
	"DJ E": 1,
	"Optiv & CZA": 3,
	"Yunis": 3,
	"Osmas": 1,
	"Paint": 5,
	"Homemade Weapons": 6,
	"HØST": 2,
	"Calyx & Teebee": 8,
	"Hadley": 2,
	"Kumarachi & Sedo": 1,
	"Askel & Elere": 1,
	"Heist": 4,
	"Uphigh x Vorace": 1,
	"Klinical": 8,
	"Dyslexia": 1,
	"Traumatize": 4,
	"Beterror & Alt.Face": 1,
	"Sam Binga & Om Unit": 1,
	"Foreign Beggars": 2,
	"T.I": 5,
	"ParaDigitz": 2,
	"Visages & Sustance": 1,
	"Hybris & MVRK": 1,
	"Skylark & The Caracal Project": 1,
	"Askel & Kelle": 1,
	"Adred & Ant TC1": 1,
	"Akeos": 1,
	"Society Of Numbers": 5,
	"The Upbeats": 34,
	"Rezzett": 1,
	"T>I": 1,
	"Nymfo": 6,
	"Motiv": 2,
	"Effin": 1,
	"Solace": 1,
	"S.P.Y.": 9,
	"Jon1st & Shield": 1,
	"Halfow & Screamarts": 1,
	"Constrict": 1,
	"Hydro Ft. War": 1,
	"The Skeptics": 1,
	"Clouds": 1,
	"Amir De Bois": 3,
	"Phace & Mefjus": 6,
	"Evol Intent & Des McMahon": 1,
	"Nymfo & Arkaik": 1,
	"Sam Binga & Halogenix": 1,
	"Black Sun Empire & Nymfo": 3,
	"Hive": 1,
	"Prolix & The Qemists": 1,
	"VCTRE": 1,
	"Ephyum": 1,
	"Genic": 4,
	"FLO": 2,
	"Psynchro & Toyfon": 1,
	"The Outsiders & OaT": 1,
	"Arigto": 7,
	"Trakker": 1,
	"Infekt": 1,
	"Psynchro": 1,
	"Æterna": 3,
	"Edlan": 4,
	"Teddy Killerz & Nais": 1,
	"Klippee": 1,
	"Signs": 33,
	"Synergy & Signal": 3,
	"Code Lost": 1,
	"Grey Code": 7,
	"Particle": 3,
	"Gerra & Stone": 2,
	"DREVM": 1,
	"Koherent & Ill Truth": 1,
	"Ekcle": 1,
	"Agresssor Bunx": 1,
	"Chee": 18,
	"Opsen": 1,
	"Signal x Culprate x Disprove": 1,
	"MISSIN": 3,
	"Chrizpy Chriz x Voljum": 1,
	"ÆTERNA": 1,
	"Dub Elements": 10,
	"Alix Perez & Skeptical": 1,
	"Skarpa": 2,
	"Bold Theory": 2,
	"Sabroi": 1,
	"Klax X Shyun": 1,
	"Bou & Stompz": 1,
	"Noisia & Evol Intent": 3,
	"Dutta": 3,
	"Silent Witness": 6,
	"Objectiv & Illament": 1,
	"Kronodigger": 4,
	"Bou": 3,
	"Circuits & Synth Ethics": 1,
	"Section 63": 1,
	"Sovvy": 2,
	"Mister Shifter": 1,
	"Screamart": 1,
	"DubApe w Hiloxam": 1,
	"The Prodigy": 2,
	"Erik Luebs": 1,
	"Dabs": 1,
	"Dayle": 3,
	"Getter": 3,
	"Korpse": 1,
	"Ripple": 1,
	"Horde & Reptile": 1,
	"Technimatic": 2,
	"Lapsung": 3,
	"Icicle & Alix Perez": 1,
	"Krispy": 2,
	"Signs & Diggerz": 1,
	"Trail": 3,
	"Psynchro & Imp Force": 1,
	"Vici": 2,
	"Smeerlapp & BorkerBrothers": 1,
	"Dalek One": 2,
	"Ghost Syndicate": 1,
	"Dharma Kaya": 1,
	"Shyun & Cruk": 5,
	"Marvellous Kane": 1,
	"Liz E": 1,
	"Klax & Enei": 4,
	"Total Science & Jubei": 1,
	"Gridlok": 7,
	"Clarity": 3,
	"Hydraulix": 2,
	"Gydra": 9,
	"Delerium": 1,
	"High Rankin": 1,
	"Clearlight": 3,
	"Pablo Dread": 1,
	"Subtension": 12,
	"Tessela": 1,
	"Synergy & Audio": 1,
	"Dj Hybrid": 1,
	"Metal Work": 1,
	"Bou & Unglued": 1,
	"Natural Forces": 1,
	"Koherent": 5,
	"LMB": 2,
	"OM Unit": 1,
	"Cesco": 1,
	"Impish": 1,
	"Neve & Crimson": 1,
	"John Holt": 1,
	"Skew": 1,
	"Jacob Foulds": 1,
	"Kazantzakis": 1,
	"Switch Technique & Deathmachine": 1,
	"Rockwell": 12,
	"Dope": 2,
	"Rizzle": 5,
	"Skeptical": 11,
	"Felix": 5,
	"Emperor & Foreign Concept": 1,
	"LEVITATE": 1,
	"MISSIN & Abis": 1,
	"AC13": 1,
	"Beta 2 & Zero T": 1,
	"Phentix": 2,
	"Phace x Subtension": 1,
	"Compiler": 1,
	"Benitsuki": 2,
	"Ash Koosha": 1,
	"L o J": 1,
	"Exept & MISSIN": 1,
	"Agressor Bunx": 29,
	"Total Science, Digital & Spirit": 1,
	"B": 1,
	"North Base & No Concept": 1,
	"ColtCuts": 1,
	"Limewax": 6,
	"Zlaab": 1,
	"Semichrome": 1,
	"Fludry": 1,
	"Alix Perez & Monty": 1,
	"Noulan & Kelayx": 1,
	"Dauntless": 4,
	"Ed Rush & Optical": 10,
	"GROUND": 1,
	"Kije": 10,
	"InsideInfo": 1,
	"Herzeloyde Ft. Hapa & Tsuruda": 1,
	"Exept & Sinic": 1,
	"M.Justa": 4,
	"Thing": 1,
	"Tiedye Ky": 1,
	"Jubei & Tyrone": 3,
	"SINNF": 1,
	"Mateba": 1,
	"no puls": 1,
	"Klay": 1,
	"Ewol x Benji": 1,
	"Alix Perez & Icicle": 1,
	"Fractale": 1,
	"Drumsound & Bassline Smith": 11,
	"Fourward & Redpill": 1,
	"Break": 10,
	"Koan Sound": 1,
	"Dub Elements & Neonlight": 1,
	"Haundra & Mystic State": 1,
	"Grystmp": 1,
	"Dubshun": 1,
	"Aether": 1,
	"Nami & Black Barrel": 3,
	"Dawn Wall": 4,
	"Shimon & Benny L": 1,
	"T.I. Ft. Serum": 1,
	"Ntechnique & Mayel Ft. Paraskeva": 1,
	"Rockwell X Lakeway": 1,
	"MISO": 1,
	"Lucio De Rimanez": 1,
	"Ray Keith": 1,
	"Calibre": 3,
	"KOAN Sound": 1,
	"Culprate": 2,
	"Causa": 1,
	"Spectrasoul": 12,
	"Bad District": 3,
	"ZeroZero": 3,
	"Recue": 1,
	"Was A Be": 5,
	"Mean Teeth & Insect": 1,
	"SBK. & Shigero": 1,
	"Kyrist": 3,
	"Nami & Kapha": 1,
	"Nemy": 1,
	"UZ, Oski & Craze": 1,
	"What So Not & Skrillex": 1,
	"Madeaux": 1,
	"Lamont": 2,
	"ALESIA": 1,
	"JOYRYDE & Skrillex": 1,
	"What So Not & Ganz": 1,
	"The Upbeats & Truth": 3,
	"ID": 3,
	"Camo & Krooked & TC": 1,
	"Telefon Tel Aviv": 1,
	"QZB x Was A Be": 1,
	"Unglued": 5,
	"Bitloud": 1,
	"Fixate": 5,
	"Shades": 12,
	"Xtrah & Noisia": 8,
	"Lurch": 1,
	"Mike Fell, Gábor Lázár": 1,
	"Herzeloyde": 9,
	"Misanthrop & Synergy": 1,
	"JULo": 1,
	"OZ": 2,
	"Kursa": 9,
	"SineCore": 1,
	"EiZO": 3,
	"Peyo": 1,
	"Fragz Ft. Hijak MC": 1,
	"Fearful": 2,
	"Nucleus & Paradox": 2,
	"Ground & Fre4knc": 1,
	"Synergy": 9,
	"Kursa & Seppa": 2,
	"Stenchman + Meloki": 1,
	"Inside Info & Hybrid Minds": 1,
	"Commix": 5,
	"DLR & Script": 1,
	"Vorso": 2,
	"From Creation": 1,
	"Ethos": 1,
	"Ray Gun": 1,
	"Scrabble VIP": 1,
	"Life Goes On": 1,
	"Crackdown": 1,
	"Submarine": 1,
	"Fearful & Lakeway": 1,
	"Inward, Hanzo, Randie": 1,
	"Kusp Ft. Mc Fats & Soulmotion": 1,
	"Black Barrel Ft. Thematic": 1,
	"Quartz": 1,
	"CLIN": 2,
	"GLXY": 1,
	"3RDKND": 1,
	"dBridge & Skeptical": 1,
	"Ground & Skylark": 1,
	"Ascent": 3,
	"BOU & Sub Killaz": 1,
	"The Upbeats & Ivy Lab": 3,
	"Vhsceral": 4,
	"Dub Head": 9,
	"Bleep Bloop & Mr. Bill": 1,
	"OaT + KcA": 2,
	"The Upbeats & Halogenix": 1,
	"No Puls": 10,
	"Kontakt": 1,
	"Flxk1 & DB1": 1,
	"Vital": 2,
	"Tim Parker": 2,
	"Murdock & Doctrine": 3,
	"Lowriderz": 5,
	"Bleep Bloop & Tsuruda": 2,
	"Kiril": 5,
	"Pola & Bryson": 2,
	"[Fzz].": 1,
	"Bungle": 2,
	"Doom Poets": 1,
	"Rachel Green": 1,
	"The Upbeats & Noisia & Goth": 1,
	"Dayle & Subp Yao": 1,
	"Jam Thieves & Current Value": 1,
	"Artificial Intelligence": 1,
	"Krone": 1,
	"Episcool": 2,
	"Roxas & Klahrk x Kattie": 1,
	"Djah": 2,
	"Enoby": 1,
	"Brusten & DYL": 1,
	"DLR & Hydro": 1,
	"Stoner & Dottor Poison": 2,
	"Sterfry, Chaca, Bonnema, and Jestic": 1,
	"Poztman": 1,
	"David Carbone": 1,
	"Mindscape Ft. Coppa": 2,
	"Bleep Bloop & Ethan Glass": 1,
	"Robbyt": 1,
	"SUMA": 1,
	"Arcatype": 1,
	"Eprom & ZEKE BEATS": 4,
	"Kangding Ray": 2,
	"Nohidea": 1,
	"Tsuruda Ft. Alix Perez": 1,
	"Billain & Signal": 1,
	"Forest Drive West": 1,
	"Razat": 17,
	"Noisia & Two Fingers": 2,
	"Quiet Bison": 1,
	"William’ Ft. Radii": 1,
	"What So Not & Dyro": 2,
	"Jon Hopkins": 3,
	"Digital & Spirit": 1,
	"A$AP Ferg": 1,
	"ZEKE BEATS": 6,
	"G Jones & Eprom": 3,
	"WSN": 1,
	"Kendrick Lamar": 1,
	"ZEKE BEATS & BeauDamian": 1,
	"ZEKE BEATS & Blanke": 1,
	"Danny Drive Thru": 1,
	"Animals In The Room & Zimbu": 1,
	"Dutta Ft. TI": 1,
	"ALEPH": 3,
	"Stoner": 4,
	"Gisaza": 1,
	"Gella": 1,
	"Snake & Wolf": 1,
	"Nosaj Thing": 1,
	"Hebbe": 2,
	"Fa11out, Optiv & CZA": 1,
	"Abstract Elements & Subwave": 1,
	"Martyn": 2,
	"Paula Temple": 2,
	"Laksa": 1,
	"Special Request": 1,
	"Privacy": 1,
	"Schwefelgelb": 1,
	"G jones": 1,
	"Lana Del Ray": 1,
	"Minor Science": 1,
	"Jonny L": 1,
	"The Upbeats & Rockwell": 1,
	"Black Sun Empire": 6,
	"Dayzero": 1,
	"OCEE": 6,
	"Haan808": 1,
	"Killbox": 10,
	"INFEKT": 1,
	"Damage Report": 1,
	"BOU Ft. Stompz": 1,
	"Marauder": 1,
	"Noisia & Prolix": 2,
	"Serum": 2,
	"Foreign Concept & Halogenix": 1,
	"Culprate x Ghostek": 1,
	"Walrus Tales": 1,
	"Smol": 1,
	"Atom & Cell": 1,
	"Philth & Bredren": 1,
	"BOU & Current Value": 1,
	"Eptic": 1,
	"Foreign Concept": 2,
	"War": 2,
	"Avum": 1,
	"Majestim": 1,
	"Stenchman": 1,
	"Thelem x Onhell": 1,
	"Psychic Pressure & Missing": 1,
	"Saule": 1,
	"Valid": 1,
	"Beepo": 1,
	"Icicle & Proxima": 2,
	"Seibel": 2,
	"Koma": 1,
	"Benny L": 6,
	"Crematorium": 1,
	"Malleus": 1,
	"BOU": 1,
	"Great Dane": 1,
	"YAYAYA": 2,
	"Nine Yards": 1,
	"Noisia & Former": 5,
	"Brusten": 1,
	"Hydraulix & Oski x Ian Munro": 1,
	"Black Opps": 5,
	"Skantia & Operate": 1,
	"Grey Code & Mystic State": 1,
	"Reid Speed & Frank Loyal": 1,
	"Hapa x No Puls": 1,
	"AETERNA": 1,
	"Kolt": 1,
	"Poseidon X Aeterna": 1,
	"Walrus Tales X Anti_Negative X Kliine": 1,
	"Kolectiv & Survey": 1,
	"Super Rush": 1,
	"TI & Upgrade": 3,
	"Bukez Finezt": 1,
	"Melinki & Demure": 1,
	"KLAX & Hyroglifics": 1,
	"DAYLE & Distune": 1,
	"Ò KURO": 1,
	"Freek": 1,
	"Beta 2": 2,
	"Missing": 3,
	"SCAR": 1,
	"Mindscape": 1,
	"Woulg": 1,
	"Noer the Boy": 1,
	"Dimension": 5,
	"KLAX": 1,
	"Invadhertz": 1,
	"Crada": 2,
	"OneMind": 4,
	"Stoner & Dotter Poison": 1,
	"Quadrant, Kid Hops & Iris": 1,
	"Tantrum Desire": 1,
	"Dom & Roland": 4,
	"Cruk": 13,
	"Aztek": 2,
	"Triangle": 1,
	"Frequent": 1,
	"Klax & Kyrist": 1,
	"Fuj": 2,
	"Shyun": 5,
	"Opus": 1,
	"Killill": 3,
	"Crucial": 1,
	"Rene LaVice": 2,
	"Aspect": 1,
	"Roly Porter": 1,
	"Exept": 3,
	"Volatile Cycle & Mean Teeth": 1,
	"Rochelle Jordan": 2,
	"Centaspike": 1,
	"Coman Dante": 1,
	"Sam Binary": 1,
	"Ry X": 1,
	"False Noise & Flukeluke": 1,
	"Evol Intent": 4,
	"Rad Hatter": 1,
	"Special request": 1,
	"Oliver Yorke": 2,
	"Joker": 3,
	"AntiNegative": 1,
	"Annix & Teddy Killerz": 1,
	"T.I.": 4,
	"Sevdaliza": 1,
	"Ankou": 1,
	"Cavalier": 1,
	"Opus. & Loudcutta": 1,
	"Pendulum": 1,
	"Special Victim": 1,
	"Fre4knc & NickBee": 1,
	"Black Barrel, Nami, Ewol": 1,
	"Ezor": 1,
	"Dub Head & M.Justa": 1,
	"Maouq": 1,
	"Chevel": 1,
	"Gangus": 3,
	"Enei & Kasra": 2,
	"Upgrade": 3,
	"Andy Pain": 3,
	"Flume": 2,
	"Imp Force And Toyfon": 1,
	"Vulgarythm": 1,
	"Simstah": 1,
	"Signs & Sotilas": 1,
	"LITLBIRD": 1,
	"Jaydrop": 1,
	"Thematic": 2,
	"A&P": 1,
	"A.Fruit": 1,
	"Renraku": 1,
	"Gangus & Tsuruda": 1,
	"Samba": 7,
	"Synth Ethics": 3,
	"Subp Yao & Razat": 1,
	"Sofie Letitre": 20,
	"Sawyer James": 1,
	"Graves & ASKA": 3,
	"Leet x Jon Casey": 1,
	"Aagentah": 2,
	"Dub Phizix": 4,
	"God.Damn.Chan.": 1,
	"Too Greezey Ft. Thunda Banton": 1,
	"Lynx": 4,
	"ATYK": 1,
	"Oski": 1,
	"Samurai Breaks & Dyrekt": 1,
	"Fill Spectre": 2,
	"Mo Vibez": 4,
	"Hyroglifics & Arkaik": 1,
	"Spaow": 1,
	"Was A Be & Synth Ethics": 2,
	"Camo & Crooked": 3,
	"Untitld": 1,
	"Dioptrics": 1,
	"Prolix": 4,
	"Nu:Logic": 1,
	"Deadline": 1,
	"Parasite": 2,
	"Notion": 1,
	"Foreign Beggars. Izzie Gibbs & Dizmack": 1,
	"Subp Yao & Dayle": 2,
	"Zeke Beats": 3,
	"Arkaik": 6,
	"Fluidity": 1,
	"Kanine": 3,
	"Phase": 1,
	"Vortex": 1,
	"Havelock": 2,
	"Eazy & Bou": 1,
	"LEViT∆TE": 4,
	"Dayle & Høst": 1,
	"Rockwell x Roni Size": 1,
	"Noisia, Mefjus & Hybris": 1,
	"Stranjah Ft. Tony Ranks": 1,
	"Fourward & Phentix": 1,
	"Akov": 2,
	"Midn8runner": 1,
	"Deontriq & Noxen": 2,
	"Matrix & Fierce": 2,
	"Need For Mirrors": 2,
	"Phace & Signal": 1,
	"ISQA": 1,
	"Black Sun Empire & Pythius": 2,
	"Bensley": 1,
	"Zero T": 3,
	"Woolymammoth": 5,
	"Objectiv w Clexx": 1,
	"Glyph & Survey": 1,
	"Black Sun Empire & Neonlight": 2,
	"Camo & Krooked Ft. Mefjus": 1,
	"TIDE": 1,
	"Insomniax": 1,
	"Maztek & Aeph": 1,
	"Bone": 1,
	"Groves": 2,
	"Fields": 1,
	"kLL sMTH": 1,
	"ILK": 1,
	"Distune": 3,
	"AK:Hash & Høst": 1,
	"Kusmo": 1,
	"Shield (DK)": 1,
	"Mauoq & Dexta": 1,
	"Still": 4,
	"Leon Ross": 1,
	"Mystic State & Third Degree": 1,
	"Denoctra": 1,
	"Contingent": 1,
	"Revaux Ft. Charli Brix": 1,
	"Woolymammoth ft. Yokaze": 1,
	"Manta": 1,
	"Rafau Etamski": 1,
	"Hybris & Prokta": 1,
	"KaTT": 2,
	"00:48 Ivy Lab": 1,
	"03:26 Levela": 1,
	"05:39 Chee": 1,
	"06:52 Billain": 1,
	"09:12 Foreign Concept x Sam Binga": 1,
	"11:30 Great Dane": 1,
	"46:54 Dead End": 1,
	"48:29 Roger Wilco": 1,
	"51:09 Smuskind & Felix Raymon": 1,
	"52:57 Audeka": 1,
	"56:00 Abstract Elements x Electrosoul System": 1,
	"Serum & Voltage": 2,
	"DotCrawl": 1,
	"Mr Frenkie": 3,
	"Inward, Hanzo & Randie Ft. Synth Ethics": 2,
	"Cruk & Signal": 2,
	"PA": 1,
	"The Prototypes": 1,
	"Diplomat": 1,
	"Noizesplitter": 1,
	"QZB x Phentix": 1,
	"VRH": 1,
	"Sub Zero & Dj Limited": 2,
	"MindVipe": 1,
	"Des McHanon": 1,
	"Arnone": 1,
	"Macca": 1,
	"Roxas": 1,
	"Ghostek & Nami": 1,
	"Scartip": 2,
	"Phere": 1,
	"L Plus & John B": 2,
	"Refraq": 1,
	"Mefjus & Icicle": 1,
	"Jimmy Pé": 1,
	"RedPill": 2,
	"Structure": 1,
	"Current Value Ft. Dean Rodell & Lockjaw": 1,
	"Loadstar": 4,
	"The Stratta": 1,
	"Redeyes & Signs": 1,
	"Audeka & Rawtekk": 1,
	"Trisicloplox": 3,
	"EiZo": 1,
	"Urbandawn x Krakota": 1,
	"UFO!": 1,
	"Mystic State vs Wingz": 1,
	"AENAK": 1,
	"Ding": 1,
	"Indidjinous & Code 906": 1,
	"Bassnectar & Dorfex Bos": 1,
	"Setta": 1,
	"HumaNature & Wavefields Ft. Apache": 1,
	"Serum & Voltage Ft. Bassman": 1,
	"Holly Vs. Shield": 1,
	"AKOV & The Clamps": 1,
	"Dose": 1,
	"Eazy": 1,
	"Jnthn Stein & Mr Carmack": 1,
	"Jam Thieves": 3,
	"Arigato": 1,
	"Victim": 1,
	"Aedfx.": 1,
	"Nami x ‘Lo": 1,
	"X&G": 7,
	"Limewax, Cooh & The Panacea": 1,
	"Keeno": 1,
	"Katch": 1,
	"Ded Sheppard": 2,
	"Yokaze": 2,
	"Foreign Beggars Ft. Alix Perez, Izzie Gibbs, Dizmack": 1,
	"Boston & Silo": 1,
	"Still A Bud Ft. Phentix": 1,
	"Wilkinson x Dimension": 1,
	"Dusty Ohms": 1,
	"Brian Brainstorm": 1,
	"Holly Ft. Inverness": 1,
	"Precision": 1,
	"HNGIN": 1,
	"Ill K": 1,
	"Mizo": 3,
	"Ed:It": 3,
	"Holly x Frost": 1,
	"Alloy": 1,
	"Total Science, Quadrant & Iris": 1,
	"FarFlow": 1,
	"Composite": 1,
	"Player Dave": 1,
	"Filip Motovunski": 1,
	"John Lee Kusher": 1,
	"Merikan": 1,
	"Dystopik": 1,
	"Noché": 1,
	"Spline": 6,
	"Crimes": 2,
	"Phentix & Signal": 2,
	"Hapa x Herzeloyde": 1,
	"Altered Perception & Incus": 1,
	"Sam Binga & Rider Shafique": 1,
	"Signal & Disprove": 7,
	"Opus. & Loudkutta": 1,
	"Eastcolors": 1,
	"Signal & Disprove (Ft. Ordure)": 1,
	"Fixate & Skeptical": 1,
	"Tipper": 6,
	"Deadcode": 1,
	"Sub Focus": 1,
	"Edit.MKK & Adey B": 2,
	"Fourward": 8,
	"Mindmapper & Silvahfonk": 2,
	"Lukka": 1,
	"DR": 2,
	"James Marvel & MC Mota": 1,
	"Pulseye": 1,
	"Version": 1,
	"Sam Binga & Danny Scrilla": 1,
	"Lapalux": 2,
	"Mefjus & Xtrah": 2,
	"DLR & Quadrant": 1,
	"Twisted Individual": 2,
	"Dexta & Crypticz": 1,
	"Handra (Ft. Mc Resc)": 1,
	"BassBrothers Ft. Shield": 1,
	"Voltage": 2,
	"Battery": 1,
	"Arbee Ft. Dyzlexic": 1,
	"Kryptic Minds & Leon Switch": 1,
	"Bert H & High N Sick": 1,
	"Flukeluke": 2,
	"The Upbeats Ft. Mara TK": 4,
	"Arbee": 1,
	"Culprate & Signal": 1,
	"Boltex X Holly": 1,
	"FH & J": 2,
	"Xavi": 1,
	"DubApe": 1,
	"Transient": 1,
	"Woolymammoth & Noer The Boy": 1,
	"Spectrasoul Ft. Break": 1,
	"Culprate & Roger Wilco": 1,
	"Unwell & Jay Knight": 1,
	"Gnaar": 1,
	"Indigo Beck x Untitld": 1,
	"Chrome Republic & Sktchy ppl": 1,
	"Potions": 1,
	"DR & Henning": 1,
	"Kolectiv & MEDIKA": 1,
	"UM & DLR": 1,
	"Fred V & Grafix": 1,
	"MAERE": 4,
	"Distant Future & Trespasser": 1,
	"BACON": 1,
	"Bohemian & Senzzor": 1,
	"Royalston": 1,
	"The Upbeats Ft. Orifice Vulgatron": 2,
	"Inward, Hanzo & Randie": 3,
	"Ultrah": 2,
	"My Nu Leng & Spectrasoul": 1,
	"DR Ft. Coppa": 1,
	"Run DMT": 1,
	"Anthony Granata": 1,
	"Razat x Subp Yao": 1,
	"Replicant": 1,
	"X&G Ft. Josh Pan": 1,
	"Hairitage x Golden Child": 1,
	"Jazzatron": 2,
	"[FZZ].": 1,
	"Save The Rave": 1,
	"WAR": 1,
	"DR & Monolog": 1,
	"Myselor": 1,
	"HMU": 2,
	"Sotilas": 1,
	"Kurve & FVTVRST": 1,
	"Holly & Former": 1,
	"Ill Truth": 2,
	"Total Science, Hydro & War": 1,
	"Tobax": 3,
	"RUN DMT": 1,
	"Teddy Killerz & Signal": 1,
	"DR & Allied Ft. Current Value": 1,
	"3asic": 1,
	"Apashe Ft. Phace": 1,
	"Zombie Cats & RedPill": 1,
	"Allied & Lockjaw": 1,
	"Frankee": 1,
	"Brain Crisis & Kije": 1,
	"Arkitech": 1,
	"Margaman & Coolhand Flex": 1,
	"Persian Empire Ft. Salty Sam": 1,
	"Mefjus & Kasra": 2,
	"Sumthin Sumthin": 3,
	"Mikal": 8,
	"Tsuruda Ft. Huxley Anne": 1,
	"Drevm": 1,
	"Kije & Jay Mythix": 2,
	"DLR Ft. Mc Fokus": 1,
	"Matiflow": 1,
	"Cousin Litt Ft. Tsuruda": 1,
	"Relict": 1,
	"Mean Teeth & Skylark": 1,
	"Centauri": 1,
	"C Y G N": 2,
	"Kursa & Lone Drum": 1,
	"Malux, Crissy Criss & Erb n Dub": 1,
	"Noisia Ft. Joe Seven": 1,
	"Bassnectar & G Jones": 1,
	"Gentlemens Club": 1,
	"DJ Brockie & Ed Solo": 1,
	"Think Twice": 6,
	"Joakuim": 1,
	"Newsensei": 3,
	"Stranjah": 1,
	"Joe Ford Ft Malux": 1,
	"Goldie": 3,
	"Air.K & Cephei": 3,
	"Akomplis & Objectiv": 1,
	"Dauntless & Sach": 1,
	"Untek": 1,
	"Hydraulix Ft. Kei Leeza": 1,
	"Frederic Robinson": 1,
	"Hybris & DLR": 1,
	"Vacuum & Skore": 1,
	"Dub Personal": 1,
	"Vanta": 1,
	"Riot": 1,
	"Untitld X William": 1,
	"Crypticz": 1,
	"Recon47": 1,
	"Dj Brockie & Ed Solo": 1,
	"Detboi": 1,
	"Halogenix & Monty": 1,
	"Bou & M.A.M.F.": 1,
	"Optiv & CZA vs Inward, Hanzo & Randie": 1,
	"Lowriderz & Grinder": 1,
	"Calculon, Shamanga & Austin Speed": 1,
	"Brain Crisis & Dub Head": 1,
	"Survey & Quartz": 1,
	"RedPill & Zombie Cats": 1,
	"Technical Itch": 1,
	"Dolenz": 1,
	"Envenom": 2,
	"Dotcrawl": 2,
	"Ulterior motive Ft. Icicle": 1,
	"Holly & No Puls": 2,
	"Disprove ft. Hijak": 1,
	"JNTHN STEIN & Mr Carmack": 1,
	"Vromm": 2,
	"Datacode": 1,
	"DRS, LSB": 1,
	"SkyDy": 1,
	"Somejerk": 1,
	"Survival": 2,
	"Kursiva Ft. Kryptomedic": 1,
	"War Machine": 1,
	"Mark Instinct": 2,
	"Hillsdom": 1,
	"ISEE": 1,
	"Zero Tep Ft. Noer The Boy": 1,
	"Marcus Intalex & ST. Files": 1,
	"Gridlok & Optiv": 1,
	"Kije & Brain Crisis": 1,
	"Monotype": 1,
	"Lynx Ft. Radzta": 1,
	"Brain & Semitone": 1,
	"Sigrah": 1,
	"Eizo": 2,
	"Holly & Donkong": 1,
	"Gridlok & Black Sun Empire": 1,
	"Montell2099 x LOUD": 1,
	"Terrence And Phillip": 1,
	"Tephra & Arkoze": 1,
	"Ohmtrix": 1,
	"Røhaan & Roxas": 1,
	"Subtone": 1,
	"Killbox Ft. Rymetyme": 1,
	"EastColors": 1,
	"Mr. Carmack": 1,
	"Gridlok & Hive": 1,
	"ARKTKT": 2,
	"SCRVP": 1,
	"AEDFX & Jon Casey": 1,
	"Ceph": 3,
	"Black Sun Empire & State Of Mind": 2,
	"Bohemian": 2,
	"Liveon": 1,
	"Nostalgia": 1,
	"Homemade Weapons & Mc Fokus": 1,
	"Skynet": 4,
	"Timbaland & Magoo": 1,
	"Lavance & Skarpa": 1,
	"Hajimari": 1,
	"Crimes!": 1,
	"Unwell": 2,
	"Bohemian & Kritik": 1,
	"Machinecode": 2,
	"Banks": 1,
	"Stray": 2,
	"Sabre": 2,
	"Ill Logic & Raf": 1,
	"Breakage": 1,
	"Clark": 1,
	"Moby": 1,
	"Umru & Holly": 1,
	"Toronto Is Broken": 2,
	"Kung Ft. Hijack MC": 1,
	"DMVU": 2,
	"Lynx Ft. Zero One": 1,
	"SCartip": 1,
	"Revazz": 1,
	"Shades & Ivy Lab": 1,
	"Yunis & Subp Yao": 1,
	"The Others": 1,
	"D’tch": 1,
	"Sulex, NineYards": 1,
	"Holly & Karol Tip": 1,
	"Universal Project": 2,
	"KiTrust": 1,
	"RIval Consoles": 1,
	"Current Value, Optiv & CZA": 1,
	"State Of Mind": 2,
	"Fearful & HyroGlifics": 1,
	"Dub Frequency": 1,
	"Prophet": 1,
	"Bombardier": 1,
	"Amoss & Fre4knc": 1,
	"Calyx & Teebee Ft. Mortlock": 1,
	"DJ Ride & Abelation": 1,
	"Codex": 1,
	"Pennygiles": 1,
	"Data 3": 5,
	"NastyNasty & Bleep Bloop": 1,
	"MachineCode": 4,
	"Fragz & Disphonia": 1,
	"MPathy": 1,
	"Ethik & Stoner & Dottor Poison": 1,
	"Boltex": 1,
	"NU4M & Kije": 2,
	"Ozma": 2,
	"Holly & BeazyTymes": 1,
	"Lyne": 1,
	"Niels Broos": 1,
	"Malaky": 1,
	"Edit.MKK": 1,
	"Mvrk x Kronom": 1,
	"Stoner & ParaDigitz": 1,
	"Klahrk X Kattie": 1,
	"Tephra, Arkoze & Survey": 1,
	"Tyke": 1,
	"Ethik & Dottor Poison": 1,
	"DJ Hazard": 3,
	"Bryggz": 1,
	"Phace & Misanthrop": 1,
	"Audeka": 7,
	"Dotter Poison & Ethik": 1,
	"Mefjus & Insideinfo": 3,
	"Collider": 3,
	"Klahrk X Rocas": 1,
	"Mo Vibez Ft. L.o.J.": 1,
	"L 33": 4,
	"Skeptical & alix Perez": 1,
	"Half Bit": 1,
	"GRAMZ": 1,
	"Klax": 4,
	"DC Breaks": 1,
	"Rakoon": 2,
	"All Mode": 1,
	"Bleep Bloop & Zeke Beats": 1,
	"Requake": 1,
	"Blac": 1,
	"Om Unit & Sam Binga": 1,
	"It Hz": 4,
	"Oxossi": 1,
	"Black Sun Empire & Noisia": 1,
	"Gentlemen’s Club ft. Watson": 1,
	"Picota & Kumbh": 1,
	"RVKIT": 1,
	"Nouwa": 1,
	"Emperor Ft. SOLAH": 1,
	"Eyeseeu": 4,
	"Hadjimari": 1,
	"Conscious Program": 1,
	"Mr Joseph": 1,
	"Subkillaz & Dutta & Bou": 1,
	"Culprate & Tru Fonix": 1,
	"Skeptical & Alix Perez": 2,
	"Aphotsys": 1,
	"Perspective": 2,
	"FFFELIX": 2,
	"Zonderling": 2,
	"Nosfer": 1,
	"Grey Code & Skylark": 1,
	"Sense MC x Arkaik & Dave Owen": 1,
	"Habitat": 1,
	"HLZ": 1,
	"Fatboy Slim": 1,
	"Holier": 1,
	"Mayhem & Oski": 1,
	"Digital": 1,
	"Noisia & Mono/Poly": 2,
	"Octane & DLR": 1,
	"Quadrant & Iris": 1,
	"Owneath": 5,
	"Enkephalin": 1,
	"Spy": 1,
	"Subkillaz, Dutta & Bou": 1,
	"Taelimb": 2,
	"Unknown Error": 1,
	"The Upbeats & Agressor Bunx": 1,
	"Noisia & Ivy Lab": 5,
	"Richie Brains": 4,
	"Cybin & Trex": 1,
	"The Upbeats & Dose": 1,
	"Yokaze & Culprate": 1,
	"Trilo & Entita": 1,
	"Rich & Dan": 1,
	"Ivy Lab & Emperor": 2,
	"Sleeper X Mesck": 1,
	"Signs & Sks": 1,
	"Hydro, War & Mateba": 1,
	"Moonstones": 1,
	"Living Plastic": 1,
	"SBL": 1,
	"Muffler": 1,
	"Kronom": 1,
	"Future Engineers": 1,
	"DFNKT & Adjusted Speech": 1,
	"Champagne Drip": 1,
	"Flame & Displaced Paranormal": 1,
	"UZ & ATLiens": 1,
	"Lowquid": 1,
	"Cod3x & Micron": 1,
	"Aethek": 1,
	"Simula & Dutta": 1,
	"Cod3x": 2,
	"Ak Hash": 1,
	"Phazz": 2,
	"Signal, Heamy & Allied": 1,
	"Mefjus & Emperor": 3,
	"Nympho": 1,
	"NC17 & KC": 1,
	"Machinedrum Ft. Kevin Hussein": 1,
	"Noisia Ft. Giovanca": 1,
	"Syrebral": 1,
	"Sub Marine": 1,
	"Konichi": 4,
	"Bad Company UK": 1,
	"Rawtekk & Audeka": 1,
	"Rahmanee": 1,
	"Volatile Cycle & Barbarix": 1,
	"Lumberjvck & Evol Intent & Twin Moons": 1,
	"The Clamps & Nickbee": 1,
	"Kusp Ft. SMB": 1,
	"Mark Instinct & Crimes!": 1,
	"June Miller": 3,
	"Camo & Krooked Ft. Joe Killington": 1,
	"Oak": 1,
	"Baauer": 2,
	"Sleeper": 1,
	"DLR Ft. Break": 1,
	"TOYC": 1,
	"Distance": 2,
	"Mako": 1,
	"Rusty K": 1,
	"Sam Binga": 1,
	"Disprove & Tobax": 1,
	"Break Ft. Mc Fats": 1,
	"Skulls": 1,
	"Fourward & Mefjus": 1,
	"Neve": 1,
	"Sam Binga & Chimpo": 1,
	"DLR Ft. Mako": 1,
	"Cousin Litt": 5,
	"Black Sun Empire & State Of Mind Ft. Virus Syndicate": 1,
	"Break & Total Science": 1,
	"Kodin": 1,
	"NastyNasty": 2,
	"Skore": 2,
	"Chase & Status": 2,
	"Mohican Sun": 1,
	"Origin": 1,
	"Tails.": 2,
	"Signal & Skadi": 1,
	"Hash & Monty": 1,
	"Zombie Cats & Safra": 1,
	"The XX": 1,
	"Architek & Visceral": 1,
	"Stereossauro": 1,
	"Fourward & Friction": 1,
	"Alphie & Halpe": 3,
	"Signal & Agressor Bunx": 1,
	"NickBee & Syze": 1,
	"Alix Perez & Zero T": 1,
	"Mat Zo": 1,
	"Apashe & Phace": 1,
	"Ak": 1,
	"Hybris & Subtension": 1,
	"Emphasis": 1,
	"Shinen": 1,
	"Myro": 1,
	"Malsum Ft. Counterstrike": 1,
	"Bad Company": 6,
	"Wooly Mammoth & Holly": 1,
	"Current Value & Signal": 1,
	"Detail": 1,
	"A.M.C. & Turno": 1,
	"Sun": 1,
	"Trex": 1,
	"Vue": 2,
	"Distant Future & MT": 1,
	"Metome": 1,
	"Halpe": 1,
	"Surie": 1,
	"Shandy": 1,
	"Sober Rob & Manitee": 1,
	"DLR & Ant Tc1": 1,
	"Greazus": 2,
	"Noisia vs The Upbeats": 2,
	"Ewol & Wingz": 1,
	"State Of Play": 1,
	"Moth Circuit": 1,
	"Hyroglifics ft. Foreign Beggars": 1,
	"TC": 1,
	"Tapecut X Nuar": 1,
	"Qbig & Zenith B": 2,
	"Rival Consoles": 5,
	"Pythius & Neonlight": 1,
	"Teddy Killerz & Icicle": 1,
	"Bass Brothers": 1,
	"Fierce & Zero T": 2,
	"Amathyst": 1,
	"Tapecut": 1,
	"MachineCode & Lockjaw": 1,
	"DieMantle": 1,
	"BTK & Cold Fusion": 1,
	"Maztek Ft. June Miller": 1,
	"Nasty Nasty": 2,
	"London Elektricity": 1,
	"Cause 4 Concern": 1,
	"Canon Danzer": 1,
	"Stranjah & Grimm": 1,
	"DROELOE": 1,
	"Gonner": 1,
	"Teddy Killerz & June Miller": 1,
	"Zotti": 1,
	"Distinct Motive": 1,
	"Tennyson": 3,
	"Jamie XX": 1,
	"Segment & Concept Vision": 3,
	"Kyra": 1,
	"Kolectiv": 2,
	"Ceph & Lowriderz": 1,
	"Hydro + War": 2,
	"dBridge vs Skeptical": 1,
	"Mark Instinct x Crimes": 1,
	"Opgezwolle": 1,
	"Technical Itch ft. Mc Jakes": 1,
	"Hapa & Herzeloyde": 1,
	"Homemade Weapons & Red Army": 1,
	"Matt Lange": 1,
	"Hydro & War": 1,
	"Philth": 1,
	"X&G ft. Josh Pan": 1,
	"Dj Shadow": 2,
	"Calculon & Shamanga & Austin Speed": 1,
	"Disept": 2,
	"Hidden Turn": 1,
	"Jubei &  Goldie": 1,
	"Kung Ft. Hijak": 1,
	"Aphex Twin": 1,
	"Shield & 2Stars": 1,
	"Kaelin ellis": 1,
	"Icarus": 2,
	"T": 2,
	"Vacuum": 3,
	"Machinedrum": 3,
	"Medasin": 4,
	"Crissy Criss, Malux, Erb & Dub": 1,
	"Banganagangbangers": 1,
	"Nasty Habits": 1,
	"D’tch & Jekyll": 1,
	"Dosage": 1,
	"Dom": 1,
	"Ed Rush & Optical Ft. Ryme Tyme": 1,
	"Ivy Lab & Tim Parker": 1,
	"Gydra & Mailky": 1,
	"Elsop.": 1,
	"Item, No Signal, Havik": 1,
	"Murdok": 1,
	"Subminderz & Fatloaf": 1,
	"Redders": 1,
	"Dom & Kemal": 1,
	"Totemic": 1,
	"Subp Yao & Yunis": 1,
	"A.M.C. & Six Blade": 1,
	"Rare Logic & Mo Vibez": 1,
	"Hydro & Kolectiv": 1,
	"Nekolye": 2,
	"Ivy Lab & Alix Perez": 1,
	"TI": 1,
	"Neonlight & Wintermute": 2,
	"Misc.Friend": 1,
	"G Jones & Sayer": 1,
	"Transparent & C": 2,
	"Like Lions": 1,
	"VROMM": 2,
	"Chee.": 1,
	"Mantra": 1,
	"Holly & LOJACK": 1,
	"Spor": 2,
	"Outlit": 1,
	"Telemeter": 1,
	"Alvin Risk ft. Hodgy Beats": 1,
	"Visceral": 1,
	"Shield & Submarine": 1,
	"Shiver & MTWN": 1,
	"The Foreign Beggars, Machinedrum, Fracture": 1,
	"M Set & Deefa": 1,
	"Brunnen": 1,
	"Ed Rush, Fierce, Optical": 1,
	"Epoch": 1,
	"Homeboy": 1,
	"LITTLE SNAKE": 1,
	"Matrix, Fierce": 1,
	"Noisia & Mono/poly": 1,
	"Disprove, Signal and Audeka": 1,
	"Lynx Feat. Calibre": 1,
	"Lewru & Jupe": 1,
	"Volatile Cycle": 2,
	"ZES": 1,
	"Mr Oizo": 1,
	"IamThinkTank": 1,
	"ARKTK": 1,
	"Fat Cap": 1,
	"Inward, Hanzo": 1,
	"X&G, Ray Ray": 1,
	"Stakka & Skynet": 1,
	"Signal, Segment & Concept Vision": 1,
	"Commodo": 1,
	"Arktkt": 1,
	"Holly x Mo Vibez": 1,
	"Steelan": 1,
	"Kursa & Faek": 1,
	"Impak": 1,
	"KVNS": 1,
	"Eskmo": 1,
	"Bleep Bloop ft. BRSMSN": 1,
	"Holly x Quix x Montell2099 x Villette X Elevate": 1,
	"TC feat. Jakes": 1,
	"Signal & Phentix": 2,
	"Synx": 1,
	"Proxy": 1,
	"Calyx & Teebee Ft. Ayah Marar": 1,
	"Skrillex": 1,
	"Rawtekk": 2,
	"Optical": 1,
	"Like Lions x Clame": 1,
	"Philth & Wreckless": 1,
	"DEEM": 1,
	"Skeeb Sullivan": 1,
	"Fortran": 1,
	"SBTRKT": 1,
	"Trentemøller": 1,
	"DAYLE": 1,
	"Paradigitz": 1,
	"Gydra & Dextems": 1,
	"Lux.impala": 1,
	"Purpl Orkid": 1,
	"Stephan Bodzin": 2,
	"Disprove & Signal": 1,
	"Mono": 1,
	"Borderline": 1,
	"Manifolds": 1,
	"Sebastian": 1,
	"Pomrad": 1,
	"Bob James": 1,
	"Friction Vs Fourward": 1,
	"The Deli": 1,
	"Solar": 1,
	"Linafornia": 1,
	"Unquote": 1,
	"Vincent Paolo": 1,
	"Quadrant, Kid Hops, Iris": 1,
	"Holly & Hounds": 1,
	"Optiv & BTK": 1,
	"Leaf Beach & Mndbd": 1,
	"Autumn Keys": 1,
	"Subtle Element": 1,
	"Illformants": 1,
	"Tek.Lun": 1,
	"EIZO": 1,
	"Dr. Derg": 1,
	"Electric Mantis": 1,
	"Esco": 1,
	"Incognito": 2,
	"Logistics": 1,
	"Dorian Concept": 1,
	"Brainpain": 1,
	"Pleasure & Jimmy Pe": 1,
	"Stakka & Skynet feat. Kemal & Rob Data": 1,
	"Task Horizon": 1,
	"Eomac": 1,
	"Yancey x Proche.": 1,
	"Anthony Granata + Tremah": 1,
	"Quadrant & NC": 1,
	"Ewol & Espired": 1,
	"L”o”J": 1,
	"Clue": 2,
	"Corrupt Souls": 1,
	"SHADES": 2,
	"untitled": 1,
	"Levrige": 1,
	"Rascal": 1,
	"Bl4ck 0wlz": 1,
	"Whynnel": 2,
	"C4C & Fierce": 1,
	"Noisia & Spor": 1,
	"Brokenchord": 1,
	"DLR & Nymfo": 1,
	"Corteks": 1,
	"Levitate & Holly": 1,
	"Lain": 1,
	"Total Science & Nymfo": 1,
	"Wolfgang Gartner": 1,
	"Know V.A.": 1,
	"Downliners Sekt": 1,
	"Ponicz": 1,
	"Czekki": 1,
	"Random Movement": 1,
	"Cirrus": 1,
	"Definate": 1,
	"KRNE & Thook": 1,
	"Goodnight Cody": 1,
	"Homemade weapons": 1,
	"Silent Witness & Break": 1,
	"Recs": 1,
	"Jan Amit": 1,
	"AXON": 1,
	"Arp Xp": 1,
	"Malaky & Satl": 1,
	"CYGN": 1,
	"Herzeloyde & Tsuruda": 1,
	"ESQ": 1,
	"Mako (Feat. Villem)": 1,
	"Signal & Abstract Elements": 1,
	"Fracture & Deft": 1,
	"Kaelin Ellis": 1,
	"Ocean Wisdom": 1,
	"JNTHN STEIN": 4,
	"Enei & Mefjus": 2,
	"Bentz": 2,
	"Kagwe": 1,
	"Conduct": 1,
	"Montell2099": 1,
	"Anile": 1,
	"Subterra & Dekko": 1,
	"Atomik Tags": 1,
	"Drifter": 1,
	"Turna": 1,
	"Jai Tee": 1,
	"DBR UK & Denial": 1,
	"Arkaik, Dexta, Mauoq & Mtwn": 1,
	"Samiyam": 1,
	"Burial": 1,
	"Optical & BTK": 1,
	"Alphie": 1,
	"Ancestral Voices": 1,
	"Zedd": 1,
	"Brain Crisis": 1,
	"Icicle & Safire": 1,
	"Safra": 1,
	"Culture Shock": 1,
	"Kemal & Rob Data": 1,
	"Decimal Bass": 2,
	"Xtrah & Mefjus": 1,
	"Markee Ledge": 1,
	"Photek": 1,
	"Emperor & Centra": 1,
	"KRNE x Sober Rob": 1,
	"Outfit x Zero Tep": 1,
	"QO": 1,
	"Ivy Lab feat. Havelock": 1,
	"Om Unit & Fracture": 1,
	"RNDYSVGE": 1,
	"Holly & Razat": 1,
	"Pulpalicious": 1,
	"Himalia": 1,
	"Desimal": 1,
	"Phace & Culprate": 1,
	"Patrick Brian": 1,
	"DET": 1,
	"Signs, Skank & Sks": 1,
	"Calyx": 1,
	"Icicle & Saffire": 1,
	"T I & Upgrade": 1,
	"Weird Inside": 1,
	"Vigorous": 1,
	"Survey, Tephra & Arkoze": 1,
	"Sponce": 1,
	"Lowriderz & Ceph": 1,
	"Disprove, Audeka & Signal": 1,
	"Lynch Kingsley & Ilk": 1,
	"Module Eight": 1,
	"Machine Code & Lockjaw": 1,
	"Posij & Burglar": 1,
	"Justice": 1,
	"Synkro": 2,
	"Kill The Noise": 1,
	"Ipman": 1,
	"Barbarix": 1,
	"Stealth": 1,
	"DBR UK": 1,
	"Power Glove": 1,
	"Mortem": 1,
	"Karma": 1,
	"Ghostwarrior": 1,
	"Kill The Noise & Feed Me": 1,
	"Nuage": 1,
	"Jake Kaufman": 1,
	"Halpe & West1ne": 1,
	"Fre4knc & Silvahfonk": 1,
	"Hati": 1,
	"Noisia & Joe Seven": 1,
	"Survey, Tehpra & Arkoze": 1,
	"Jeff Fressco": 1,
	"Data & Keza": 1,
	"Fracture & Chimpo": 1,
	"Mono/poly": 1,
	"Mr Explicit": 1,
	"Noisia & Hybris": 1,
	"Kid Kanevil ft Ocean Wisdom": 1,
	"Angel Zero": 1,
	"Emperor & Mefjus": 1,
	"Clay": 1,
	"Ed Rush & Optical feat. Ryme Tyme": 1,
	"Araatan": 1,
	"Octane & DLR feat. Script": 1,
	"Cern": 1,
	"Sam Binga feat. Romaine": 1,
	"Disasterpeace": 1,
	"Amoss & Arkaik": 1,
	"Sunchase & I Wannabe": 1,
	"Sam Binga & Hyroglyfics": 1,
	"Nero": 1,
	"Cursa": 1,
	"Losco": 1,
	"DJ Fresh": 1,
	"Machine Code & CZA": 1,
	"Mefjus & InsideInfo": 1,
	"C.A.B.L.E": 1,
	"Dr Dre": 1,
	"Wolf & Snake w/ Dj GO": 1,
	"The Upbeats & Noisia": 1,
	"Manitee & Sober Robert": 1,
	"Zaliwa": 1,
	"Momoiro Clover Z": 2,
	"Sun Araw": 1,
	"Friske": 1,
	"Okho x Visceral": 1,
	"Must Die!": 1,
	"Koreless": 1
}
