[
	{
		"href": "http://feeds.noisia.nl/~r/NoisiaRadio/~3/DYJQuXDIRkM/",
		"done": true
	},
	{
		"href": "http://feeds.noisia.nl/~r/NoisiaRadio/~3/QDon9uXq72I/",
		"done": true
	},
	{
		"href": "http://feeds.noisia.nl/~r/NoisiaRadio/~3/ac_i1DeRx0M/",
		"done": true
	},
	{
		"href": "http://feeds.noisia.nl/~r/NoisiaRadio/~3/l2oiF48cx9M/",
		"done": true
	},
	{
		"href": "http://feeds.noisia.nl/~r/NoisiaRadio/~3/AHFOd1wsxtA/",
		"done": true
	},
	{
		"href": "http://feeds.noisia.nl/~r/NoisiaRadio/~3/nEOsQOvm4Ko/",
		"done": true
	},
	{
		"href": "http://feeds.noisia.nl/~r/NoisiaRadio/~3/1CJw0ou1JEc/",
		"done": true
	},
	{
		"href": "http://feeds.noisia.nl/~r/NoisiaRadio/~3/nXJCE_foiUM/",
		"done": true
	},
	{
		"href": "http://feeds.noisia.nl/~r/NoisiaRadio/~3/ec9ceUkoVz4/",
		"done": true
	},
	{
		"href": "http://feeds.noisia.nl/~r/NoisiaRadio/~3/Z8Cr9g5KjDE/",
		"done": true
	},
	{
		"href": "http://feeds.noisia.nl/~r/NoisiaRadio/~3/ACn3QeHWirk/",
		"done": true
	},
	{
		"href": "http://feeds.noisia.nl/~r/NoisiaRadio/~3/RbggVAAJHaY/",
		"done": true
	},
	{
		"href": "http://feeds.noisia.nl/~r/NoisiaRadio/~3/FA5tWvmmPhw/",
		"done": true
	},
	{
		"href": "http://feeds.noisia.nl/~r/NoisiaRadio/~3/cnrgfZlphZY/",
		"done": true
	},
	{
		"href": "http://feeds.noisia.nl/~r/NoisiaRadio/~3/IB0kVbYfjss/",
		"done": true
	},
	{
		"href": "http://feeds.noisia.nl/~r/NoisiaRadio/~3/ac_Z8NUdBpg/",
		"done": true
	},
	{
		"href": "http://feeds.noisia.nl/~r/NoisiaRadio/~3/PJXx-iJzpHs/",
		"done": true
	},
	{
		"href": "http://feeds.noisia.nl/~r/NoisiaRadio/~3/7h_XMrCUA7A/",
		"done": true
	},
	{
		"href": "http://feeds.noisia.nl/~r/NoisiaRadio/~3/t8EyaUwpXCg/",
		"done": true
	},
	{
		"href": "http://feeds.noisia.nl/~r/NoisiaRadio/~3/J9JI0bkia84/",
		"done": true
	},
	{
		"href": "http://feeds.noisia.nl/~r/NoisiaRadio/~3/RYGToTjAxhw/",
		"done": true
	},
	{
		"href": "http://feeds.noisia.nl/~r/NoisiaRadio/~3/_2Jx4e26hyI/",
		"done": true
	},
	{
		"href": "http://feeds.noisia.nl/~r/NoisiaRadio/~3/XG3fMwgTbAw/",
		"done": true
	},
	{
		"href": "http://feeds.noisia.nl/~r/NoisiaRadio/~3/FNaNXf27Ngo/",
		"done": true
	},
	{
		"href": "http://feeds.noisia.nl/~r/NoisiaRadio/~3/LEdfQkdqubo/",
		"done": true
	},
	{
		"href": "http://feeds.noisia.nl/~r/NoisiaRadio/~3/1YZvhUf-5GU/",
		"done": true
	},
	{
		"href": "http://feeds.noisia.nl/~r/NoisiaRadio/~3/-Ss36IW_YVI/",
		"done": true
	},
	{
		"href": "http://feeds.noisia.nl/~r/NoisiaRadio/~3/Ai-ous1K-dk/",
		"done": true
	},
	{
		"href": "http://feeds.noisia.nl/~r/NoisiaRadio/~3/JulfRpRXreM/",
		"done": true
	},
	{
		"href": "http://feeds.noisia.nl/~r/NoisiaRadio/~3/UrTzBPhOK70/",
		"done": true
	},
	{
		"href": "http://feeds.noisia.nl/~r/NoisiaRadio/~3/qth-ZF_yUXA/",
		"done": true
	},
	{
		"href": "http://feeds.noisia.nl/~r/NoisiaRadio/~3/Bp5aegRF8II/",
		"done": true
	},
	{
		"href": "http://feeds.noisia.nl/~r/NoisiaRadio/~3/hgd85hlqOAg/",
		"done": true
	},
	{
		"href": "http://feeds.noisia.nl/~r/NoisiaRadio/~3/diWMe5xElnQ/",
		"done": true
	},
	{
		"href": "http://feeds.noisia.nl/~r/NoisiaRadio/~3/V4hE8260dj4/",
		"done": true
	},
	{
		"href": "http://feeds.noisia.nl/~r/NoisiaRadio/~3/PDEc6mjncU0/",
		"done": true
	},
	{
		"href": "http://feeds.noisia.nl/~r/NoisiaRadio/~3/yNMUhttX9rM/",
		"done": true
	},
	{
		"href": "http://feeds.noisia.nl/~r/NoisiaRadio/~3/s3gpTSwDBqE/",
		"done": true
	},
	{
		"href": "http://feeds.noisia.nl/~r/NoisiaRadio/~3/_D-UM_OoRDs/",
		"done": true
	},
	{
		"href": "http://feeds.noisia.nl/~r/NoisiaRadio/~3/Su8RG0ZUkDM/",
		"done": true
	},
	{
		"href": "http://feeds.noisia.nl/~r/NoisiaRadio/~3/vQlc5wlnhTs/",
		"done": true
	},
	{
		"href": "http://feeds.noisia.nl/~r/NoisiaRadio/~3/ZVsPE_t-vQU/",
		"done": true
	},
	{
		"href": "http://feeds.noisia.nl/~r/NoisiaRadio/~3/HsUdHdzxJFg/",
		"done": true
	},
	{
		"href": "http://feeds.noisia.nl/~r/NoisiaRadio/~3/JaFw79L_FHE/",
		"done": true
	},
	{
		"href": "http://feeds.noisia.nl/~r/NoisiaRadio/~3/-jHh9naFLUY/",
		"done": true
	},
	{
		"href": "http://feeds.noisia.nl/~r/NoisiaRadio/~3/WnYYl6f532g/",
		"done": true
	},
	{
		"href": "http://feeds.noisia.nl/~r/NoisiaRadio/~3/EM5BKOTAvqw/",
		"done": true
	},
	{
		"href": "http://feeds.noisia.nl/~r/NoisiaRadio/~3/xgmieMrPkG0/",
		"done": true
	},
	{
		"href": "http://feeds.noisia.nl/~r/NoisiaRadio/~3/49_8puQaNDg/",
		"done": true
	},
	{
		"href": "http://feeds.noisia.nl/~r/NoisiaRadio/~3/GzJFGKTxDCo/",
		"done": true
	},
	{
		"href": "http://feeds.noisia.nl/~r/NoisiaRadio/~3/0NIWZn9J9Ss/",
		"done": true
	},
	{
		"href": "http://feeds.noisia.nl/~r/NoisiaRadio/~3/zKL327c2Nwc/",
		"done": true
	},
	{
		"href": "http://feeds.noisia.nl/~r/NoisiaRadio/~3/SY7tKrp5Rho/",
		"done": true
	},
	{
		"href": "http://feeds.noisia.nl/~r/NoisiaRadio/~3/sOGdBGiShVQ/",
		"done": true
	},
	{
		"href": "http://feeds.noisia.nl/~r/NoisiaRadio/~3/OFuQmWVa2NY/",
		"done": true
	},
	{
		"href": "http://feeds.noisia.nl/~r/NoisiaRadio/~3/eIuJyTVBefo/",
		"done": true
	},
	{
		"href": "http://feeds.noisia.nl/~r/NoisiaRadio/~3/-HsHAlbva0E/",
		"done": true
	},
	{
		"href": "http://feeds.noisia.nl/~r/NoisiaRadio/~3/IUfQpceCpI0/",
		"done": true
	},
	{
		"href": "http://feeds.noisia.nl/~r/NoisiaRadio/~3/VbHtbiED_6s/",
		"done": true
	},
	{
		"href": "http://feeds.noisia.nl/~r/NoisiaRadio/~3/9hOguonZRcQ/",
		"done": true
	},
	{
		"href": "http://feeds.noisia.nl/~r/NoisiaRadio/~3/RkvgNkjnjrg/",
		"done": true
	},
	{
		"href": "http://feeds.noisia.nl/~r/NoisiaRadio/~3/vFPLMwghRm4/",
		"done": true
	},
	{
		"href": "http://feeds.noisia.nl/~r/NoisiaRadio/~3/f6wVXSrpxL0/",
		"done": true
	},
	{
		"href": "http://feeds.noisia.nl/~r/NoisiaRadio/~3/9NLE1A3xTIU/",
		"done": true
	},
	{
		"href": "http://feeds.noisia.nl/~r/NoisiaRadio/~3/HuzRGcJyH-8/",
		"done": true
	},
	{
		"href": "http://feeds.noisia.nl/~r/NoisiaRadio/~3/vdekCc1WZE4/",
		"done": true
	},
	{
		"href": "http://feeds.noisia.nl/~r/NoisiaRadio/~3/hRdW3yIONC0/",
		"done": true
	},
	{
		"href": "http://feeds.noisia.nl/~r/NoisiaRadio/~3/NOntd8d-Zj0/",
		"done": true
	},
	{
		"href": "http://feeds.noisia.nl/~r/NoisiaRadio/~3/eXmi5ZUkQ0g/",
		"done": true
	},
	{
		"href": "http://feeds.noisia.nl/~r/NoisiaRadio/~3/PhD6J99V7Us/",
		"done": true
	},
	{
		"href": "http://feeds.noisia.nl/~r/NoisiaRadio/~3/4brJKoGmZBM/",
		"done": true
	},
	{
		"href": "http://feeds.noisia.nl/~r/NoisiaRadio/~3/erjy6McBjv8/",
		"done": true
	},
	{
		"href": "http://feeds.noisia.nl/~r/NoisiaRadio/~3/u4eJ1eVOMWc/",
		"done": true
	},
	{
		"href": "http://feeds.noisia.nl/~r/NoisiaRadio/~3/h2hOhC96PO8/",
		"done": true
	},
	{
		"href": "http://feeds.noisia.nl/~r/NoisiaRadio/~3/xhcVy7TtXSc/",
		"done": true
	},
	{
		"href": "http://feeds.noisia.nl/~r/NoisiaRadio/~3/lErZleOoOgc/",
		"done": true
	},
	{
		"href": "http://feeds.noisia.nl/~r/NoisiaRadio/~3/VOE657Zms3c/",
		"done": true
	},
	{
		"href": "http://feeds.noisia.nl/~r/NoisiaRadio/~3/K8bcSVFjjzs/",
		"done": true
	},
	{
		"href": "http://feeds.noisia.nl/~r/NoisiaRadio/~3/b_M74XB4ObI/",
		"done": true
	},
	{
		"href": "http://feeds.noisia.nl/~r/NoisiaRadio/~3/4Hje0NHF8ro/",
		"done": true
	},
	{
		"href": "http://feeds.noisia.nl/~r/NoisiaRadio/~3/RB7k4i5n4bA/",
		"done": true
	},
	{
		"href": "http://feeds.noisia.nl/~r/NoisiaRadio/~3/B_vGeqOKjkY/",
		"done": true
	},
	{
		"href": "http://feeds.noisia.nl/~r/NoisiaRadio/~3/-6PRLa6Lu9w/",
		"done": true
	},
	{
		"href": "http://feeds.noisia.nl/~r/NoisiaRadio/~3/SzKNrpd3rI8/",
		"done": true
	},
	{
		"href": "http://feeds.noisia.nl/~r/NoisiaRadio/~3/6OaPlpWPEKE/",
		"done": true
	},
	{
		"href": "http://feeds.noisia.nl/~r/NoisiaRadio/~3/Urbw4u8Sfj0/",
		"done": true
	},
	{
		"href": "http://feeds.noisia.nl/~r/NoisiaRadio/~3/lEd7blS1UrI/",
		"done": true
	},
	{
		"href": "http://feeds.noisia.nl/~r/NoisiaRadio/~3/OJ25jYzW7KI/",
		"done": true
	},
	{
		"href": "http://feeds.noisia.nl/~r/NoisiaRadio/~3/Tp2jGuu02hI/",
		"done": true
	},
	{
		"href": "http://feeds.noisia.nl/~r/NoisiaRadio/~3/q8piWwS8Ftw/",
		"done": true
	},
	{
		"href": "http://feeds.noisia.nl/~r/NoisiaRadio/~3/1Inejv4tNC8/",
		"done": true
	},
	{
		"href": "http://feeds.noisia.nl/~r/NoisiaRadio/~3/TZqSjyPDXQE/",
		"done": true
	},
	{
		"href": "http://feeds.noisia.nl/~r/NoisiaRadio/~3/KhzSZxdkp9w/",
		"done": true
	},
	{
		"href": "http://feeds.noisia.nl/~r/NoisiaRadio/~3/LDZ7uczJ7eg/",
		"done": true
	},
	{
		"href": "http://feeds.noisia.nl/~r/NoisiaRadio/~3/CBa4lFXCJsw/",
		"done": true
	},
	{
		"href": "http://feeds.noisia.nl/~r/NoisiaRadio/~3/LsKA-H5WbW8/",
		"done": true
	},
	{
		"href": "http://feeds.noisia.nl/~r/NoisiaRadio/~3/C_dx9LW2yUA/",
		"done": true
	},
	{
		"href": "http://feeds.noisia.nl/~r/NoisiaRadio/~3/ZadLBpAfTzY/",
		"done": true
	},
	{
		"href": "http://feeds.noisia.nl/~r/NoisiaRadio/~3/3d01S6hV0ho/",
		"done": true
	},
	{
		"href": "http://feeds.noisia.nl/~r/NoisiaRadio/~3/GNYzNUOIkak/",
		"done": true
	},
	{
		"href": "http://feeds.noisia.nl/~r/NoisiaRadio/~3/01LCfg5Ny00/",
		"done": true
	},
	{
		"href": "http://feeds.noisia.nl/~r/NoisiaRadio/~3/SeMYykV76Fg/",
		"done": true
	},
	{
		"href": "http://feeds.noisia.nl/~r/NoisiaRadio/~3/jSwL9-JcmOA/",
		"done": true
	},
	{
		"href": "http://feeds.noisia.nl/~r/NoisiaRadio/~3/x82R6d8Dx1Y/",
		"done": true
	},
	{
		"href": "http://feeds.noisia.nl/~r/NoisiaRadio/~3/Yk3QmtlhoKA/",
		"done": true
	},
	{
		"href": "http://feeds.noisia.nl/~r/NoisiaRadio/~3/KS-0BODpF3Y/",
		"done": true
	},
	{
		"href": "http://feeds.noisia.nl/~r/NoisiaRadio/~3/9JaOTiIbxLs/",
		"done": true
	},
	{
		"href": "http://feeds.noisia.nl/~r/NoisiaRadio/~3/9dDzBARl5Vs/",
		"done": true
	},
	{
		"href": "http://feeds.noisia.nl/~r/NoisiaRadio/~3/BFzw8C-tyuI/",
		"done": true
	},
	{
		"href": "http://feeds.noisia.nl/~r/NoisiaRadio/~3/Nm8YPvt9--k/",
		"done": true
	},
	{
		"href": "http://feeds.noisia.nl/~r/NoisiaRadio/~3/sqqDJ47i-xc/",
		"done": true
	},
	{
		"href": "http://feeds.noisia.nl/~r/NoisiaRadio/~3/vhoPx5SKZzY/",
		"done": true
	},
	{
		"href": "http://feeds.noisia.nl/~r/NoisiaRadio/~3/02dullRvVHY/",
		"done": true
	},
	{
		"href": "http://feeds.noisia.nl/~r/NoisiaRadio/~3/gpxMoKaTApE/",
		"done": true
	},
	{
		"href": "http://feeds.noisia.nl/~r/NoisiaRadio/~3/9IvHZ1I89oE/",
		"done": true
	},
	{
		"href": "http://feeds.noisia.nl/~r/NoisiaRadio/~3/ufa6P9piLpw/",
		"done": true
	},
	{
		"href": "http://feeds.noisia.nl/~r/NoisiaRadio/~3/9GT9nzrUd_E/",
		"done": true
	},
	{
		"href": "http://feeds.noisia.nl/~r/NoisiaRadio/~3/h85CKa9eRlQ/",
		"done": true
	},
	{
		"href": "http://feeds.noisia.nl/~r/NoisiaRadio/~3/4sFQfaTtimU/",
		"done": true
	},
	{
		"href": "http://feeds.noisia.nl/~r/NoisiaRadio/~3/5tun6Owbct8/",
		"done": true
	},
	{
		"href": "http://feeds.noisia.nl/~r/NoisiaRadio/~3/RRZv_tqtrn4/",
		"done": true
	},
	{
		"href": "http://feeds.noisia.nl/~r/NoisiaRadio/~3/adBOMQ00OA0/",
		"done": true
	},
	{
		"href": "http://feeds.noisia.nl/~r/NoisiaRadio/~3/UPZd2gsgpT8/",
		"done": true
	},
	{
		"href": "http://feeds.noisia.nl/~r/NoisiaRadio/~3/x1cYQUdupiA/",
		"done": true
	},
	{
		"href": "http://feeds.noisia.nl/~r/NoisiaRadio/~3/P35Olr48AEE/",
		"done": true
	},
	{
		"href": "http://feeds.noisia.nl/~r/NoisiaRadio/~3/1M1FC0VP_-Q/",
		"done": true
	},
	{
		"href": "http://feeds.noisia.nl/~r/NoisiaRadio/~3/VJNeU9LSrb0/",
		"done": true
	},
	{
		"href": "http://feeds.noisia.nl/~r/NoisiaRadio/~3/SezBMWQ5Xvc/",
		"done": true
	},
	{
		"href": "http://feeds.noisia.nl/~r/NoisiaRadio/~3/LLrq59OxcE0/",
		"done": true
	},
	{
		"href": "http://feeds.noisia.nl/~r/NoisiaRadio/~3/mIIZP9tCbtU/",
		"done": true
	},
	{
		"href": "http://feeds.noisia.nl/~r/NoisiaRadio/~3/FcCxF_G3pqs/",
		"done": true
	},
	{
		"href": "http://feeds.noisia.nl/~r/NoisiaRadio/~3/Bsy1dyInTIc/",
		"done": true
	},
	{
		"href": "http://feeds.noisia.nl/~r/NoisiaRadio/~3/AbZoLVce25c/",
		"done": true
	},
	{
		"href": "http://feeds.noisia.nl/~r/NoisiaRadio/~3/U5op1AZROkM/",
		"done": true
	},
	{
		"href": "http://feeds.noisia.nl/~r/NoisiaRadio/~3/MQoExmHY2iY/",
		"done": true
	},
	{
		"href": "http://feeds.noisia.nl/~r/NoisiaRadio/~3/HeuB2TqE9jY/",
		"done": true
	},
	{
		"href": "http://feeds.noisia.nl/~r/NoisiaRadio/~3/Rizvf6Q9jrk/",
		"done": true
	},
	{
		"href": "http://feeds.noisia.nl/~r/NoisiaRadio/~3/UC48wD9moYs/",
		"done": true
	},
	{
		"href": "http://feeds.noisia.nl/~r/NoisiaRadio/~3/64YusmZae9U/",
		"done": true
	},
	{
		"href": "http://feeds.noisia.nl/~r/NoisiaRadio/~3/4yFYTD02Kts/",
		"done": true
	},
	{
		"href": "http://feeds.noisia.nl/~r/NoisiaRadio/~3/D4ABrk1y9Wg/",
		"done": true
	},
	{
		"href": "http://feeds.noisia.nl/~r/NoisiaRadio/~3/CN05aGOKIgU/",
		"done": true
	},
	{
		"href": "http://feeds.noisia.nl/~r/NoisiaRadio/~3/_PzwIzKtDP8/",
		"done": true
	},
	{
		"href": "http://feeds.noisia.nl/~r/NoisiaRadio/~3/JVPjkJ1LJVo/",
		"done": true
	},
	{
		"href": "http://feeds.noisia.nl/~r/NoisiaRadio/~3/GsFgzJ6RsJ0/",
		"done": true
	},
	{
		"href": "http://feeds.noisia.nl/~r/NoisiaRadio/~3/01H5eR-8Q3A/",
		"done": true
	},
	{
		"href": "http://feeds.noisia.nl/~r/NoisiaRadio/~3/QfkC1kD9gXA/",
		"done": true
	},
	{
		"href": "http://feeds.noisia.nl/~r/NoisiaRadio/~3/ETZop7p5Q-Y/",
		"done": true
	},
	{
		"href": "http://feeds.noisia.nl/~r/NoisiaRadio/~3/LM7UXhoDwAU/",
		"done": true
	},
	{
		"href": "http://feeds.noisia.nl/~r/NoisiaRadio/~3/BljBrf-xlFg/",
		"done": true
	},
	{
		"href": "http://feeds.noisia.nl/~r/NoisiaRadio/~3/QFdEybMHifw/",
		"done": true
	},
	{
		"href": "http://feeds.noisia.nl/~r/NoisiaRadio/~3/_zBk95Nn_kE/",
		"done": true
	},
	{
		"href": "http://feeds.noisia.nl/~r/NoisiaRadio/~3/b2KnOd8p3Qk/",
		"done": true
	},
	{
		"href": "http://feeds.noisia.nl/~r/NoisiaRadio/~3/fseLUX9YlLs/",
		"done": true
	},
	{
		"href": "http://feeds.noisia.nl/~r/NoisiaRadio/~3/UrRMAHU-GeA/",
		"done": true
	},
	{
		"href": "http://feeds.noisia.nl/~r/NoisiaRadio/~3/1-h67k_5eTo/",
		"done": true
	},
	{
		"href": "http://feeds.noisia.nl/~r/NoisiaRadio/~3/AR5Zm30vT8Y/",
		"done": true
	},
	{
		"href": "http://feeds.noisia.nl/~r/NoisiaRadio/~3/zHldzzbEZH8/",
		"done": true
	},
	{
		"href": "http://feeds.noisia.nl/~r/NoisiaRadio/~3/mn_Mrsoy0VQ/",
		"done": true
	},
	{
		"href": "http://feeds.noisia.nl/~r/NoisiaRadio/~3/utwHNeB2otg/",
		"done": true
	},
	{
		"href": "http://feeds.noisia.nl/~r/NoisiaRadio/~3/xOpEi-roZPM/",
		"done": true
	},
	{
		"href": "http://feeds.noisia.nl/~r/NoisiaRadio/~3/lVyLMSeuvg8/",
		"done": true
	},
	{
		"href": "http://feeds.noisia.nl/~r/NoisiaRadio/~3/ZHgsJHLGtDc/",
		"done": true
	},
	{
		"href": "http://feeds.noisia.nl/~r/NoisiaRadio/~3/Wt-yiEQoBlI/",
		"done": true
	},
	{
		"href": "http://feeds.noisia.nl/~r/NoisiaRadio/~3/ORHgj11634A/",
		"done": true
	},
	{
		"href": "http://feeds.noisia.nl/~r/NoisiaRadio/~3/JyVMZ68_Qbw/",
		"done": true
	},
	{
		"href": "http://feeds.noisia.nl/~r/NoisiaRadio/~3/qWnAL6-TA00/",
		"done": true
	},
	{
		"href": "http://feeds.noisia.nl/~r/NoisiaRadio/~3/6H33Pqs7Lpg/",
		"done": true
	},
	{
		"href": "http://feeds.noisia.nl/~r/NoisiaRadio/~3/h8aZEQlzJdM/",
		"done": true
	},
	{
		"href": "http://feeds.noisia.nl/~r/NoisiaRadio/~3/m0uK-b1P7ws/",
		"done": true
	},
	{
		"href": "http://feeds.noisia.nl/~r/NoisiaRadio/~3/4qi3BKcB4y8/",
		"done": true
	},
	{
		"href": "http://feeds.noisia.nl/~r/NoisiaRadio/~3/JZkOAxIl09I/",
		"done": true
	},
	{
		"href": "http://feeds.noisia.nl/~r/NoisiaRadio/~3/sMByqmnM8U8/",
		"done": true
	},
	{
		"href": "http://feeds.noisia.nl/~r/NoisiaRadio/~3/e59GSvqTjHI/",
		"done": true
	},
	{
		"href": "http://feeds.noisia.nl/~r/NoisiaRadio/~3/tc81kaLsscA/",
		"done": true
	},
	{
		"href": "http://feeds.noisia.nl/~r/NoisiaRadio/~3/yQniODW3ejs/",
		"done": true
	},
	{
		"href": "http://feeds.noisia.nl/~r/NoisiaRadio/~3/0bhvhaX9oxU/",
		"done": true
	},
	{
		"href": "http://feeds.noisia.nl/~r/NoisiaRadio/~3/1B0OqoRrpdk/",
		"done": true
	},
	{
		"href": "http://feeds.noisia.nl/~r/NoisiaRadio/~3/El0mSaUWTDY/",
		"done": true
	},
	{
		"href": "http://feeds.noisia.nl/~r/NoisiaRadio/~3/_SoxxIubGrM/",
		"done": true
	},
	{
		"href": "http://feeds.noisia.nl/~r/NoisiaRadio/~3/6e1sT9CXp2E/",
		"done": true
	},
	{
		"href": "http://feeds.noisia.nl/~r/NoisiaRadio/~3/vkZ9xM3GiAQ/",
		"done": true
	},
	{
		"href": "http://feeds.noisia.nl/~r/NoisiaRadio/~3/dhEVlwKTWig/",
		"done": true
	},
	{
		"href": "http://feeds.noisia.nl/~r/NoisiaRadio/~3/1jhuz0hAA5k/",
		"done": true
	},
	{
		"href": "http://feeds.noisia.nl/~r/NoisiaRadio/~3/9UdYnQ8ogmI/",
		"done": true
	},
	{
		"href": "http://feeds.noisia.nl/~r/NoisiaRadio/~3/uVSKd9Yud4A/",
		"done": true
	},
	{
		"href": "http://feeds.noisia.nl/~r/NoisiaRadio/~3/pNy2at9hsrA/",
		"done": true
	},
	{
		"href": "http://feeds.noisia.nl/~r/NoisiaRadio/~3/PK_VeRpPYDE/",
		"done": true
	},
	{
		"href": "http://feeds.noisia.nl/~r/NoisiaRadio/~3/CD8eNG8xwa8/",
		"done": true
	},
	{
		"href": "http://feeds.noisia.nl/~r/NoisiaRadio/~3/s-jjej0P35w/",
		"done": true
	},
	{
		"href": "http://feeds.noisia.nl/~r/NoisiaRadio/~3/9KlymErhsDM/",
		"done": true
	},
	{
		"href": "http://feeds.noisia.nl/~r/NoisiaRadio/~3/KzPrThPZ5ao/",
		"done": true
	},
	{
		"href": "http://feeds.noisia.nl/~r/NoisiaRadio/~3/hBe9GP4skFU/",
		"done": true
	},
	{
		"href": "http://feeds.noisia.nl/~r/NoisiaRadio/~3/zHqB05L_f0I/",
		"done": true
	},
	{
		"href": "http://feeds.noisia.nl/~r/NoisiaRadio/~3/cYbQTjgvsHk/",
		"done": true
	},
	{
		"href": "http://feeds.noisia.nl/~r/NoisiaRadio/~3/tjB7NemoSjw/",
		"done": true
	},
	{
		"href": "http://feeds.noisia.nl/~r/NoisiaRadio/~3/51EXOm8Hfyg/",
		"done": true
	},
	{
		"href": "http://feeds.noisia.nl/~r/NoisiaRadio/~3/KnnqrFKEpyY/",
		"done": true
	},
	{
		"href": "http://feeds.noisia.nl/~r/NoisiaRadio/~3/QDahizEZk68/",
		"done": true
	},
	{
		"href": "http://feeds.noisia.nl/~r/NoisiaRadio/~3/D4Xxy5NdgE4/",
		"done": true
	},
	{
		"href": "http://feeds.noisia.nl/~r/NoisiaRadio/~3/mZ33Wvfydfw/",
		"done": true
	},
	{
		"href": "http://feeds.noisia.nl/~r/NoisiaRadio/~3/TPBXsmQtj_E/",
		"done": true
	},
	{
		"href": "http://feeds.noisia.nl/~r/NoisiaRadio/~3/2yvjJjSLvBI/",
		"done": true
	},
	{
		"href": "http://feeds.noisia.nl/~r/NoisiaRadio/~3/CVz-ytOjRaw/",
		"done": true
	},
	{
		"href": "http://feeds.noisia.nl/~r/NoisiaRadio/~3/SJA1IRCrpLE/",
		"done": true
	},
	{
		"href": "http://feeds.noisia.nl/~r/NoisiaRadio/~3/IyyY4WpROqA/",
		"done": true
	},
	{
		"href": "http://feeds.noisia.nl/~r/NoisiaRadio/~3/IlfkBdFGoP8/",
		"done": true
	},
	{
		"href": "http://feeds.noisia.nl/~r/NoisiaRadio/~3/7O8EGXPdi7s/",
		"done": true
	},
	{
		"href": "http://feeds.noisia.nl/~r/NoisiaRadio/~3/3CJ4DiFrKvg/",
		"done": true
	},
	{
		"href": "http://feeds.noisia.nl/~r/NoisiaRadio/~3/Ge8Adfjb5mw/",
		"done": true
	},
	{
		"href": "http://feeds.noisia.nl/~r/NoisiaRadio/~3/3XcGXl9Uybs/",
		"done": true
	},
	{
		"href": "http://feeds.noisia.nl/~r/NoisiaRadio/~3/rcI5j2a3JsU/",
		"done": true
	},
	{
		"href": "http://feeds.noisia.nl/~r/NoisiaRadio/~3/kZvhIMvQSMY/",
		"done": true
	},
	{
		"href": "http://feeds.noisia.nl/~r/NoisiaRadio/~3/eQFgkcalHQU/",
		"done": true
	},
	{
		"href": "http://feeds.noisia.nl/~r/NoisiaRadio/~3/w-yCG93fflc/",
		"done": true
	},
	{
		"href": "http://feeds.noisia.nl/~r/NoisiaRadio/~3/LqgNdsZD9-Q/",
		"done": true
	},
	{
		"href": "http://feeds.noisia.nl/~r/NoisiaRadio/~3/JBhHoc29wYQ/",
		"done": true
	},
	{
		"href": "http://feeds.noisia.nl/~r/NoisiaRadio/~3/fVizpHCtPwI/",
		"done": true
	},
	{
		"href": "http://feeds.noisia.nl/~r/NoisiaRadio/~3/-89EzY4zoP0/",
		"done": true
	},
	{
		"href": "http://feeds.noisia.nl/~r/NoisiaRadio/~3/y5wBftKhBxE/",
		"done": true
	},
	{
		"href": "http://feeds.noisia.nl/~r/NoisiaRadio/~3/_z5ESIyf_jw/",
		"done": true
	},
	{
		"href": "http://feeds.noisia.nl/~r/NoisiaRadio/~3/-aOX25RaBXM/",
		"done": true
	},
	{
		"href": "http://feeds.noisia.nl/~r/NoisiaRadio/~3/xZ1u62hsFI8/",
		"done": true
	},
	{
		"href": "http://feeds.noisia.nl/~r/NoisiaRadio/~3/dDtlpEnpxv4/",
		"done": true
	},
	{
		"href": "http://feeds.noisia.nl/~r/NoisiaRadio/~3/wOmSOA8161s/",
		"done": true
	},
	{
		"href": "http://feeds.noisia.nl/~r/NoisiaRadio/~3/AuKXHqCfdsg/",
		"done": true
	},
	{
		"href": "http://feeds.noisia.nl/~r/NoisiaRadio/~3/2N0_3uslLWQ/",
		"done": true
	},
	{
		"href": "http://feeds.noisia.nl/~r/NoisiaRadio/~3/qIMpSKWDDqk/",
		"done": true
	},
	{
		"href": "http://feeds.noisia.nl/~r/NoisiaRadio/~3/u2rSthJTwwA/",
		"done": true
	},
	{
		"href": "http://feeds.noisia.nl/~r/NoisiaRadio/~3/9qnZLsMPtXQ/",
		"done": true
	},
	{
		"href": "http://feeds.noisia.nl/~r/NoisiaRadio/~3/Yr7O5aOFVOo/",
		"done": true
	},
	{
		"href": "http://feeds.noisia.nl/~r/NoisiaRadio/~3/Br3voefbcBo/",
		"done": true
	},
	{
		"href": "http://feeds.noisia.nl/~r/NoisiaRadio/~3/63nLMjmJ_Io/",
		"done": true
	},
	{
		"href": "http://feeds.noisia.nl/~r/NoisiaRadio/~3/LgYFjLAQSvo/",
		"done": true
	},
	{
		"href": "http://feeds.noisia.nl/~r/NoisiaRadio/~3/ZWA1humkBaM/",
		"done": true
	},
	{
		"href": "http://feeds.noisia.nl/~r/NoisiaRadio/~3/uS8ptw1Jaww/",
		"done": true
	},
	{
		"href": "http://feeds.noisia.nl/~r/NoisiaRadio/~3/4qAnCmmtalg/",
		"done": true
	},
	{
		"href": "http://feeds.noisia.nl/~r/NoisiaRadio/~3/OwcUxSvr-Q8/",
		"done": true
	},
	{
		"href": "http://feeds.noisia.nl/~r/NoisiaRadio/~3/40QYtZagQ44/",
		"done": true
	},
	{
		"href": "http://feeds.noisia.nl/~r/NoisiaRadio/~3/viPUd01OxJo/",
		"done": true
	},
	{
		"href": "http://feeds.noisia.nl/~r/NoisiaRadio/~3/37pScp0ch88/",
		"done": true
	},
	{
		"href": "http://feeds.noisia.nl/~r/NoisiaRadio/~3/mwIG9Rqkd5c/",
		"done": true
	},
	{
		"href": "http://feeds.noisia.nl/~r/NoisiaRadio/~3/UqvH5gOcguk/",
		"done": true
	},
	{
		"href": "http://feeds.noisia.nl/~r/NoisiaRadio/~3/2B0zb3y-n5M/",
		"done": true
	},
	{
		"href": "http://feeds.noisia.nl/~r/NoisiaRadio/~3/oIb8cD4nhPI/",
		"done": true
	},
	{
		"href": "http://feeds.noisia.nl/~r/NoisiaRadio/~3/-LA8NtugPtU/",
		"done": true
	},
	{
		"href": "http://feeds.noisia.nl/~r/NoisiaRadio/~3/5chTGWUq3vs/",
		"done": true
	},
	{
		"href": "http://feeds.noisia.nl/~r/NoisiaRadio/~3/F90gbNhy_zw/",
		"done": true
	},
	{
		"href": "http://feeds.noisia.nl/~r/NoisiaRadio/~3/GA73cK522o4/",
		"done": true
	},
	{
		"href": "http://feeds.noisia.nl/~r/NoisiaRadio/~3/YHRcQi0oajw/",
		"done": true
	},
	{
		"href": "http://feeds.noisia.nl/~r/NoisiaRadio/~3/e1qaPZql6ms/",
		"done": true
	},
	{
		"href": "http://feeds.noisia.nl/~r/NoisiaRadio/~3/PG_pPtRJbfQ/",
		"done": true
	},
	{
		"href": "http://feeds.noisia.nl/~r/NoisiaRadio/~3/4FvqsIrz_14/",
		"done": true
	},
	{
		"href": "http://feeds.noisia.nl/~r/NoisiaRadio/~3/ZOUa0xmo83w/",
		"done": true
	},
	{
		"href": "http://feeds.noisia.nl/~r/NoisiaRadio/~3/YmzUQzJCYMk/",
		"done": true
	},
	{
		"href": "http://feeds.noisia.nl/~r/NoisiaRadio/~3/gBs7XSp7pKA/",
		"done": true
	},
	{
		"href": "http://feeds.noisia.nl/~r/NoisiaRadio/~3/x0TgFppegNU/",
		"done": true
	},
	{
		"href": "http://feeds.noisia.nl/~r/NoisiaRadio/~3/ofb2H-_nTuY/",
		"done": true
	},
	{
		"href": "http://feeds.noisia.nl/~r/NoisiaRadio/~3/b8N3U0kECwo/",
		"done": true
	},
	{
		"href": "http://feeds.noisia.nl/~r/NoisiaRadio/~3/OY_Wz1a6E_4/",
		"done": true
	},
	{
		"href": "http://feeds.noisia.nl/~r/NoisiaRadio/~3/2RbSeopqqZw/",
		"done": true
	},
	{
		"href": "http://feeds.noisia.nl/~r/NoisiaRadio/~3/yXtM_LJFd5M/",
		"done": true
	},
	{
		"href": "http://feeds.noisia.nl/~r/NoisiaRadio/~3/LVGcds2r1tA/",
		"done": true
	},
	{
		"href": "http://feeds.noisia.nl/~r/NoisiaRadio/~3/b9wyp4FmAKs/",
		"done": true
	},
	{
		"href": "http://feeds.noisia.nl/~r/NoisiaRadio/~3/viXt_fX5bNc/",
		"done": true
	},
	{
		"href": "http://feeds.noisia.nl/~r/NoisiaRadio/~3/nlPAQKNN5Us/",
		"done": true
	}
]
